*------------------------------------------------------------*
User:                Ron
Date:                August 27, 2016
Time:                18:04:50
*------------------------------------------------------------*
* Training Output
*------------------------------------------------------------*
 
 
 
 
Variable Summary
 
            Measurement    Frequency
Role           Level         Count
 
INPUT        INTERVAL          3
INPUT        NOMINAL           1
INPUT        ORDINAL           3
REJECTED     INTERVAL          4
REJECTED     NOMINAL           7
REJECTED     ORDINAL           2
REJECTED     UNARY             1
TARGET       BINARY            1


*------------------------------------------------------------*
* Score Output
*------------------------------------------------------------*


*------------------------------------------------------------*
* Report Output
*------------------------------------------------------------*
 
 
 
Imputation Summary
Number Of Observations
 
                                                                                                                                                    Number of
Variable        Impute                        Indicator          Impute             Measurement                                                       Missing
Name            Method    Imputed Variable    Variable           Value     Role        Level       Label                                            for TRAIN
 
AGE             MEAN      IMP_AGE             M_AGE             53.7823    INPUT     INTERVAL      Age                                                   1217
LOG_REP_BILL    MEAN      IMP_LOG_REP_BILL    M_LOG_REP_BILL     8.0768    INPUT     INTERVAL      Transformed: Replacement: Total Amount Spent          5397
REP_AFFL        COUNT     IMP_REP_AFFL        M_REP_AFFL         9.0000    INPUT     ORDINAL       Replacement: Affluence grade                           885
REP_LTIME       MEAN      IMP_REP_LTIME       M_REP_LTIME        6.5518    INPUT     INTERVAL      Replacement: Years as Loyalty Card Member              264
 
 
 
 
Variable Distribution Training Data
 
        Number of
          Missing    Number of    Percent of
Obs     for TRAIN    Variables     Variables
 
 1           5397        1            25
 2           1217        1            25
 3            885        1            25
 4            264        1            25
