 
                                                                                                                                                                                                                                                                
 
 
Summary Statistics for Class Targets

Data=DATA

            Numeric    Formatted    Frequency
Variable     Value       Value        Count      Percent           Label

 ORGYN         0           0          16718      75.2284    Organics Purchased?
 ORGYN         1           1           5505      24.7716    Organics Purchased?


Data=TRAIN

            Numeric    Formatted    Frequency
Variable     Value       Value        Count      Percent           Label

 ORGYN         0           0          13374      75.2278    Organics Purchased?
 ORGYN         1           1           4404      24.7722    Organics Purchased?


Data=VALIDATE

            Numeric    Formatted    Frequency
Variable     Value       Value        Count      Percent           Label

 ORGYN         0           0           3344      75.2306    Organics Purchased?
 ORGYN         1           1           1101      24.7694    Organics Purchased?
