*------------------------------------------------------------*
User:                Ron
Date:                August 27, 2016
Time:                17:59:01
*------------------------------------------------------------*
* Training Output
*------------------------------------------------------------*
 
 
 
 
Variable Summary
 
            Measurement    Frequency
Role           Level         Count
 
ID           INTERVAL          1
ID           NOMINAL           1
INPUT        INTERVAL          3
INPUT        NOMINAL           1
INPUT        ORDINAL           3
REJECTED     INTERVAL          4
REJECTED     NOMINAL           7
REJECTED     ORDINAL           2
REJECTED     UNARY             1
TARGET       BINARY            1
 
 
 
 
Model Events
 
                                  Number
                   Measurement      of
Target    Event       Level       Levels      Order              Label
 
ORGYN       1        BINARY          2      Descending    Organics Purchased?
 
 
 
 
Predicted and decision variables
 
Type         Variable    Label
 
TARGET       ORGYN       Organics Purchased?
PREDICTED    P_ORGYN1    Predicted: ORGYN=1
RESIDUAL     R_ORGYN1    Residual: ORGYN=1
PREDICTED    P_ORGYN0    Predicted: ORGYN=0
RESIDUAL     R_ORGYN0    Residual: ORGYN=0
FROM         F_ORGYN     From: ORGYN
INTO         I_ORGYN     Into: ORGYN


*------------------------------------------------------------*
* Score Output
*------------------------------------------------------------*


*------------------------------------------------------------*
* Report Output
*------------------------------------------------------------*
 
 
 
Variable Importance
 
                                                                                                        Ratio of
                                              Number of                                               Validation
Variable                                      Splitting                            Validation        to Training
Name          Label                             Rules           Importance         Importance         Importance
 
AGE           Age                                 1                 1.0000             1.0000             1.0000
REP_AFFL      Replacement: Affluence grade        5                 0.7840             0.7480             0.9542
REP_GENDER    Replacement: GENDER                 4                 0.4106             0.4931             1.2010
 
 
 
Tree Leaf Report
 
                                 Training
Node               Training       Percent     Validation     Validation
 Id     Depth    Observations        1       Observations     Percent 1
 
 11       2          6322          0.08          1583           0.07
 12       2          5120          0.19          1301           0.18
  8       2          1622          0.23           421           0.24
 14       3           854          0.55           202           0.60
 19       3           646          0.77           161           0.80
 26       3           617          0.57           140           0.66
 37       3           465          0.39           123           0.46
  7       2           415          0.91            90           0.94
 15       3           333          0.36            71           0.37
 27       3           266          0.34            74           0.27
 16       3           234          0.16            72           0.13
 10       2           165          0.78            41           0.85
 28       3           158          0.18            43           0.14
 43       4           143          0.59            35           0.57
 42       4           125          0.38            27           0.44
 61       4           121          0.70            18           0.67
 62       4            81          0.40            19           0.16
 39       3            58          0.97            15           0.87
 17       3            33          0.24             9           0.33
 
 
 
 
Fit Statistics
 
Target=ORGYN Target Label=Organics Purchased?
 
   Fit
Statistics    Statistics Label                 Train    Validation
 
  _NOBS_      Sum of Frequencies            17778.00      4445.00
  _MISC_      Misclassification Rate            0.19         0.18
  _MAX_       Maximum Absolute Error            0.97         0.97
  _SSE_       Sum of Squared Errors          4935.28      1201.90
  _ASE_       Average Squared Error             0.14         0.14
  _RASE_      Root Average Squared Error        0.37         0.37
  _DIV_       Divisor for ASE               35556.00      8890.00
  _DFT_       Total Degrees of Freedom      17778.00          .
 
 
 
 
Classification Table
 
Data Role=TRAIN Target Variable=ORGYN Target Label=Organics Purchased?
 
                       Target        Outcome     Frequency       Total
Target    Outcome    Percentage    Percentage      Count      Percentage
 
  0          0         84.0436       92.7471       12404        69.7716
  1          0         15.9564       53.4741        2355        13.2467
  0          1         32.1298        7.2529         970         5.4562
  1          1         67.8702       46.5259        2049        11.5255
 
 
Data Role=VALIDATE Target Variable=ORGYN Target Label=Organics Purchased?
 
                       Target        Outcome     Frequency       Total
Target    Outcome    Percentage    Percentage      Count      Percentage
 
  0          0         84.1571       94.1986        3150        70.8661
  1          0         15.8429       53.8601         593        13.3408
  0          1         27.6353        5.8014         194         4.3645
  1          1         72.3647       46.1399         508        11.4286
 
 
 
 
Event Classification Table
 
Data Role=TRAIN Target=ORGYN Target Label=Organics Purchased?
 
  False       True        False       True
Negative    Negative    Positive    Positive
 
  2355        12404        970        2049
 
 
Data Role=VALIDATE Target=ORGYN Target Label=Organics Purchased?
 
  False       True        False       True
Negative    Negative    Positive    Positive
 
   593        3150         194         508
 
 
 
 
Assessment Score Rankings
 
Data Role=TRAIN Target Variable=ORGYN Target Label=Organics Purchased?
 
                                                                                    Mean
                            Cumulative       %      Cumulative     Number of     Posterior
Depth      Gain     Lift       Lift      Response   % Response   Observations   Probability
 
   5    242.880   3.42880     3.42880     84.9389     84.9389         889         0.84939
  10    208.428   2.73976     3.08428     67.8699     76.4044         889         0.67870
  15    180.753   2.25403     2.80753     55.8374     69.5487         889         0.55837
  20    156.497   1.83727     2.56497     45.5133     63.5399         889         0.45513
  25    132.146   1.34741     2.32146     33.3782     57.5075         889         0.33378
  30    108.885   0.92582     2.08885     22.9346     51.7454         889         0.22935
  35     91.499   0.87182     1.91499     21.5968     47.4384         889         0.21597
  40     76.983   0.75374     1.76983     18.6719     43.8426         889         0.18672
  45     65.693   0.75374     1.65693     18.6719     41.0459         889         0.18672
  50     56.671   0.75374     1.56671     18.6719     38.8107         888         0.18672
  55     49.279   0.75374     1.49279     18.6719     36.9797         889         0.18672
  60     43.120   0.75374     1.43120     18.6719     35.4539         889         0.18672
  65     37.271   0.67091     1.37271     16.6200     34.0051         889         0.16620
  70     29.664   0.30777     1.29664      7.6242     32.1206         889         0.07624
  75     23.071   0.30777     1.23071      7.6242     30.4873         889         0.07624
  80     17.302   0.30777     1.17302      7.6242     29.0583         889         0.07624
  85     12.212   0.30777     1.12212      7.6242     27.7974         889         0.07624
  90      7.688   0.30777     1.07688      7.6242     26.6766         889         0.07624
  95      3.639   0.30777     1.03639      7.6242     25.6738         889         0.07624
 100      0.000   0.30777     1.00000      7.6242     24.7722         888         0.07624
 
 
Data Role=VALIDATE Target Variable=ORGYN Target Label=Organics Purchased?
 
                                                                                    Mean
                            Cumulative       %      Cumulative     Number of     Posterior
Depth      Gain     Lift       Lift      Response   % Response   Observations   Probability
 
   5    252.481   3.52481     3.52481     87.3075     87.3075         223         0.84083
  10    217.957   2.83277     3.17957     70.1661     78.7560         222         0.65787
  15    194.794   2.48364     2.94794     61.5182     73.0187         222         0.55542
  20    166.390   1.81052     2.66390     44.8454     65.9833         222         0.41330
  25    135.793   1.13816     2.35793     28.1914     58.4045         223         0.29647
  30    112.352   0.94937     2.12352     23.5154     52.5984         222         0.22935
  35     94.154   0.84799     1.94154     21.0042     48.0908         222         0.20822
  40     79.211   0.74476     1.79211     18.4473     44.3895         222         0.18672
  45     67.539   0.74476     1.67539     18.4473     41.4984         223         0.18672
  50     58.245   0.74476     1.58245     18.4473     39.1964         222         0.18672
  55     50.639   0.74476     1.50639     18.4473     37.3124         222         0.18672
  60     44.299   0.74476     1.44299     18.4473     35.7421         222         0.18672
  65     37.614   0.57653     1.37614     14.2803     34.0861         223         0.16300
  70     29.944   0.30094     1.29944      7.4542     32.1862         222         0.07624
  75     23.295   0.30094     1.23295      7.4542     30.5394         222         0.07624
  80     17.476   0.30094     1.17476      7.4542     29.0982         222         0.07624
  85     12.320   0.30094     1.12320      7.4542     27.8210         223         0.07624
  90      7.758   0.30094     1.07758      7.4542     26.6909         222         0.07624
  95      3.675   0.30094     1.03675      7.4542     25.6797         222         0.07624
 100      0.000   0.30094     1.00000      7.4542     24.7694         222         0.07624
 
 
 
 
Assessment Score Distribution
 
Data Role=TRAIN Target Variable=ORGYN Target Label=Organics Purchased?
 
 Posterior     Number                     Mean
Probability      of      Number of     Posterior
   Range       Events    Nonevents    Probability    Percentage
 
 0.95-1.00        56           2        0.96552         0.3262
 0.90-0.95       378          37        0.91084         2.3343
 0.75-0.80       625         186        0.77065         4.5618
 0.70-0.75        85          36        0.70248         0.6806
 0.55-0.60       905         709        0.56072         9.0786
 0.35-0.40       381         623        0.37948         5.6474
 0.30-0.35        90         176        0.33835         1.4962
 0.20-0.25       380        1275        0.22961         9.3093
 0.15-0.20      1022        4490        0.18541        31.0046
 0.05-0.10       482        5840        0.07624        35.5608
 
 
Data Role=VALIDATE Target Variable=ORGYN Target Label=Organics Purchased?
 
 Posterior     Number                     Mean
Probability      of      Number of     Posterior
   Range       Events    Nonevents    Probability    Percentage
 
 0.95-1.00        13           2        0.96552         0.3375
 0.90-0.95        85           5        0.91084         2.0247
 0.75-0.80       164          38        0.77065         4.5444
 0.70-0.75        12           6        0.70248         0.4049
 0.55-0.60       234         143        0.56070         8.4814
 0.35-0.40        98         142        0.38079         5.3993
 0.30-0.35        20          54        0.33835         1.6648
 0.20-0.25       102         328        0.22962         9.6738
 0.15-0.20       255        1161        0.18517        31.8560
 0.05-0.10       118        1465        0.07624        35.6130
