 
                                                                                                                                                                                                                                                                
 
 
Limits and Replacement Values for Interval Variables

                                     Lower                   Upper
             Replace     Lower    Replacement    Upper    Replacement
Variable    Variable     limit       Value       Limit       Value

 BILL       REP_BILL       1           .           .           .     
 LTIME      REP_LTIME      1           .           .           .     
 
                                                                                                                                                                                                                                                                
 
 
Replacement Values for Class Variables

                                      Character
                Formatted            Unformatted    Numeric    Replacement
Variable          Value      Type       Value        Value        Value       Label

AFFL                0         N                         0           .         Affluence grade                 
AFFL               31         N                        31           .         Affluence grade                 
AFFL               34         N                        34           .         Affluence grade                 
GENDER                        C                         .           .                                         
NEIGHBORHOOD                  C                         .           .         Type of Residential Neighborhood
