MPRINT(EM_DIAGRAM):    data _null_;
MPRINT(EM_DIAGRAM):   call symput('NLDATE', strip(put(date(), NLDATE.)));
MPRINT(EM_DIAGRAM):   call symput('NLTIME', strip(put(datetime(), NLTIME.)));
MPRINT(EM_DIAGRAM):   run;
MPRINT(EM_DIAGRAM):   data _null_;
MPRINT(EM_DIAGRAM):   nldate= sasmsg("sashelp.dmine", "log_date_note", 'N', "August 27, 2016" );
MPRINT(EM_DIAGRAM):   nltime= sasmsg("sashelp.dmine", "log_time_note", 'N', "13:36:34" );
MPRINT(EM_DIAGRAM):   put "*------------------------------------------------------------*";
MPRINT(EM_DIAGRAM):   put "* Training Log";
MPRINT(EM_DIAGRAM):   put nldate;
MPRINT(EM_DIAGRAM):   put nltime;
MPRINT(EM_DIAGRAM):   put "*------------------------------------------------------------*";
MPRINT(EM_DIAGRAM):   run;
*------------------------------------------------------------*
* Training Log
Date:                August 27, 2016
Time:                13:36:34
*------------------------------------------------------------*
MPRINT(EM_DIAGRAM):    filename O199SDTL "C:\CAB330_CS1\DMProj1\Workspaces\EMWS1\Ids\EMTRAIN.out" encoding="UTF-8" NOBOM;
MPRINT(EM_DIAGRAM):   proc printto print=O199SDTL new;
MPRINT(EM_DIAGRAM):   run;
MPRINT(EM_DIAGRAM):    filename _LOG "C:\CAB330_CS1\DMProj1\Workspaces\EMWS1\Ids\EMLOG.log" encoding="UTF-8" NOBOM;
MPRINT(EM_DIAGRAM):    data _null_;
MPRINT(EM_DIAGRAM):   call symput('NLDATE', strip(put(date(), NLDATE.)));
MPRINT(EM_DIAGRAM):   call symput('NLTIME', strip(put(datetime(), NLTIME.)));
MPRINT(EM_DIAGRAM):   run;
MPRINT(EM_DIAGRAM):   data _null_;
MPRINT(EM_DIAGRAM):   nldate= sasmsg("sashelp.dmine", "log_date_note", 'N', "August 27, 2016" );
MPRINT(EM_DIAGRAM):   nltime= sasmsg("sashelp.dmine", "log_time_note", 'N', "13:36:34" );
MPRINT(EM_DIAGRAM):   file _LOG;
MPRINT(EM_DIAGRAM):   put "*------------------------------------------------------------*";
MPRINT(EM_DIAGRAM):   put "User:                Ron";
MPRINT(EM_DIAGRAM):   put nldate;
MPRINT(EM_DIAGRAM):   put nltime;
MPRINT(EM_DIAGRAM):   put "Site:                10004103";
MPRINT(EM_DIAGRAM):   put "Platform:            X64_8PRO";
MPRINT(EM_DIAGRAM):   put "Maintenance Release: 9.04.01M2P072314";
MPRINT(EM_DIAGRAM):   put "EM Version:          13.2";
MPRINT(EM_DIAGRAM):   put "* ";
MPRINT(EM_DIAGRAM):   run;
MPRINT(EM_DIAGRAM):    filename _LOGIN "C:\CAB330_CS1\DMProj1\Workspaces\EMWS1\Ids\EMTRAIN.log" encoding="UTF-8" NOBOM;
MPRINT(EM_COPYFILE):   data _null_;
MPRINT(EM_COPYFILE):   length line $20000;
MPRINT(EM_COPYFILE):   file _LOG MOD lrecl=20000;
MPRINT(EM_COPYFILE):   fid=fopen("_LOGIN",'i',20000,'v');
MPRINT(EM_COPYFILE):   if fid > 0 then do;
MPRINT(EM_COPYFILE):   do while(^fread(fid));
MPRINT(EM_COPYFILE):   rlen = frlen(fid);
MPRINT(EM_COPYFILE):   rc= fget(fid,line,20000);
MPRINT(EM_COPYFILE):   start = length(line)-length(left(line))+1;
MPRINT(EM_COPYFILE):   line=strip(line);
MPRINT(EM_COPYFILE):   put @start line;
MPRINT(EM_COPYFILE):   end;
MPRINT(EM_COPYFILE):   if fid > 0 then rc=fclose(fid);
MPRINT(EM_COPYFILE):   end;
MPRINT(EM_COPYFILE):   run;
MPRINT(EM_DIAGRAM):  ;
MPRINT(EM_DIAGRAM):   filename _LOGIN;
MPRINT(EM_DIAGRAM):    data _null_;
MPRINT(EM_DIAGRAM):   file _LOG mod;
MPRINT(EM_DIAGRAM):   put _page_;
MPRINT(EM_DIAGRAM):   run;
MPRINT(EM_DIAGRAM):   filename _LOGIN "C:\CAB330_CS1\DMProj1\Workspaces\EMWS1\Ids\EMSCORE.log" encoding="UTF-8" NOBOM;
MPRINT(EM_DIAGRAM):  ;
MPRINT(EM_DIAGRAM):   data _null_;
MPRINT(EM_DIAGRAM):   file _LOG mod;
MPRINT(EM_DIAGRAM):   put _page_;
MPRINT(EM_DIAGRAM):   run;
MPRINT(EM_DIAGRAM):    filename _LOGIN "C:\CAB330_CS1\DMProj1\Workspaces\EMWS1\Ids\EMREPORT.log" encoding="UTF-8" NOBOM;
MPRINT(EM_DIAGRAM):  ;
MPRINT(EM_DIAGRAM):   filename _LOGIN;
MPRINT(EM_DIAGRAM):    filename _LOG;
MPRINT(EM_DIAGRAM):    filename _OUT "C:\CAB330_CS1\DMProj1\Workspaces\EMWS1\Ids\EMOUTPUT.out" encoding="UTF-8" NOBOM;
MPRINT(EM_DIAGRAM):    data _null_;
MPRINT(EM_DIAGRAM):   call symput('NLDATE', strip(put(date(), NLDATE.)));
MPRINT(EM_DIAGRAM):   call symput('NLTIME', strip(put(datetime(), NLTIME.)));
MPRINT(EM_DIAGRAM):   run;
MPRINT(EM_DIAGRAM):   data _null_;
MPRINT(EM_DIAGRAM):   nldate= sasmsg("sashelp.dmine", "log_date_note", 'N', "August 27, 2016" );
MPRINT(EM_DIAGRAM):   nltime= sasmsg("sashelp.dmine", "log_time_note", 'N', "13:36:34" );
MPRINT(EM_DIAGRAM):   file _OUT;
MPRINT(EM_DIAGRAM):   put "*------------------------------------------------------------*";
MPRINT(EM_DIAGRAM):   put "User:                Ron";
MPRINT(EM_DIAGRAM):   put nldate;
MPRINT(EM_DIAGRAM):   put nltime;
MPRINT(EM_DIAGRAM):   put "*------------------------------------------------------------*";
MPRINT(EM_DIAGRAM):   put "* Training Output";
MPRINT(EM_DIAGRAM):   put "*------------------------------------------------------------*";
MPRINT(EM_DIAGRAM):   run;
MPRINT(EM_DIAGRAM):    filename _OUTIN "C:\CAB330_CS1\DMProj1\Workspaces\EMWS1\Ids\EMTRAIN.out" encoding="UTF-8" NOBOM;
MPRINT(EM_DIAGRAM):   ;
MPRINT(EM_COPYFILE):   data _null_;
MPRINT(EM_COPYFILE):   length line $20000;
MPRINT(EM_COPYFILE):   file _OUT MOD lrecl=20000;
MPRINT(EM_COPYFILE):   fid=fopen("_OUTIN",'i',20000,'v');
MPRINT(EM_COPYFILE):   if fid > 0 then do;
MPRINT(EM_COPYFILE):   do while(^fread(fid));
MPRINT(EM_COPYFILE):   rlen = frlen(fid);
MPRINT(EM_COPYFILE):   rc= fget(fid,line,20000);
MPRINT(EM_COPYFILE):   start = length(line)-length(left(line))+1;
MPRINT(EM_COPYFILE):   line=strip(line);
MPRINT(EM_COPYFILE):   put @start line;
MPRINT(EM_COPYFILE):   end;
MPRINT(EM_COPYFILE):   if fid > 0 then rc=fclose(fid);
MPRINT(EM_COPYFILE):   end;
MPRINT(EM_COPYFILE):   run;
MPRINT(EM_DIAGRAM):  ;
MPRINT(EM_DIAGRAM):   filename _OUTIN;
MPRINT(EM_DIAGRAM):    data _null_;
MPRINT(EM_DIAGRAM):   file _OUT mod;
MPRINT(EM_DIAGRAM):   put _page_;
MPRINT(EM_DIAGRAM):   put // "*------------------------------------------------------------*";
MPRINT(EM_DIAGRAM):   put "* Score Output";
MPRINT(EM_DIAGRAM):   put "*------------------------------------------------------------*";
MPRINT(EM_DIAGRAM):   run;
MPRINT(EM_DIAGRAM):    filename _OUTIN "C:\CAB330_CS1\DMProj1\Workspaces\EMWS1\Ids\EMSCORE.out" encoding="UTF-8" NOBOM;
MPRINT(EM_DIAGRAM):  ;
MPRINT(EM_DIAGRAM):   filename _OUTIN;
MPRINT(EM_DIAGRAM):    data _null_;
MPRINT(EM_DIAGRAM):   file _OUT mod;
MPRINT(EM_DIAGRAM):   put _page_;
MPRINT(EM_DIAGRAM):   put // "*------------------------------------------------------------*";
MPRINT(EM_DIAGRAM):   put "* Report Output";
MPRINT(EM_DIAGRAM):   put "*------------------------------------------------------------*";
MPRINT(EM_DIAGRAM):   run;
MPRINT(EM_DIAGRAM):    filename _OUTIN "C:\CAB330_CS1\DMProj1\Workspaces\EMWS1\Ids\EMREPORT.out" encoding="UTF-8" NOBOM;
MPRINT(EM_DIAGRAM):  ;
MPRINT(EM_DIAGRAM):   filename _OUTIN;
MPRINT(EM_DIAGRAM):    filename _OUT;
MPRINT(EM_DIAGRAM):    filename _emtool_ 'C:\CAB330_CS1\DMProj1\Workspaces\EMWS1\Ids\EMRUNSTATUS.xml' encoding="UTF-8" NOBOM;
20819      proc freq data=EMWS1.Ids_VariableSet noprint;
MPRINT(EM_DIAGRAM):    proc freq data=EMWS1.Ids_VariableSet noprint;
20820      table ROLE*LEVEL/out=WORK.IdsMETA;
MPRINT(EM_DIAGRAM):   table ROLE*LEVEL/out=WORK.IdsMETA;
20821      run;
MPRINT(EM_DIAGRAM):   run;

NOTE: There were 18 observations read from the data set EMWS1.IDS_VARIABLESET.
NOTE: The data set WORK.IDSMETA has 8 observations and 4 variables.
NOTE: PROCEDURE FREQ used (Total process time):
      real time           0.14 seconds
      cpu time            0.03 seconds
      

20822      proc print data=WORK.IdsMETA label noobs;
MPRINT(EM_DIAGRAM):   proc print data=WORK.IdsMETA label noobs;
20823      var ROLE LEVEL COUNT;
MPRINT(EM_DIAGRAM):   var ROLE LEVEL COUNT;
20824      label ROLE = "%sysfunc(sasmsg(sashelp.dmine, meta_role_vlabel, NOQUOTE))" LEVEL = "%sysfunc(sasmsg(sashelp.dmine, meta_level_vlabel, NOQUOTE))" COUNT = "%sysfunc(sasmsg(sashelp.dmine, rpt_count_vlabel, NOQUOTE))";
MPRINT(EM_DIAGRAM):   label ROLE = "Role" LEVEL = "Measurement Level" COUNT = "Frequency Count";
20825      title9 ' ';
MPRINT(EM_DIAGRAM):   title9 ' ';
20826      title10 "%sysfunc(sasmsg(sashelp.dmine, rpt_varSummary_title  , NOQUOTE))";
MPRINT(EM_DIAGRAM):   title10 "Variable Summary";
MPRINT(EM_DIAGRAM):   run;
20827      run;

NOTE: There were 8 observations read from the data set WORK.IDSMETA.
NOTE: The PROCEDURE PRINT printed page 1.
NOTE: PROCEDURE PRINT used (Total process time):
      real time           0.03 seconds
      cpu time            0.03 seconds
      

20828      title10;
MPRINT(EM_DIAGRAM):   title10;
20829      data _null_;
MPRINT(EM_DIAGRAM):    data _null_;
20830      rc = libref("ORGANICS");
MPRINT(EM_DIAGRAM):   rc = libref("ORGANICS");
20831      call symput('_librc', strip(put(rc, best.)));
MPRINT(EM_DIAGRAM):   call symput('_librc', strip(put(rc, best.)));
20832      run;
MPRINT(EM_DIAGRAM):   run;

NOTE: DATA statement used (Total process time):
      real time           0.00 seconds
      cpu time            0.01 seconds
      

20833      %let _engineTable =;
20834      data _null_;
MPRINT(EM_DIAGRAM):    data _null_;
20835      dsid = open("ORGANICS.ORGANICS");
MPRINT(EM_DIAGRAM):   dsid = open("ORGANICS.ORGANICS");
20836      if dsid then do;
MPRINT(EM_DIAGRAM):   if dsid then do;
20837      call symput('_engineTable', attrc(dsid, 'ENGINE'));
MPRINT(EM_DIAGRAM):   call symput('_engineTable', attrc(dsid, 'ENGINE'));
20838      dsid = close(dsid);
MPRINT(EM_DIAGRAM):   dsid = close(dsid);
20839      end;
MPRINT(EM_DIAGRAM):   end;
20840      run;
MPRINT(EM_DIAGRAM):   run;

NOTE: DATA statement used (Total process time):
      real time           0.00 seconds
      cpu time            0.01 seconds
      

20841      %let _lasrFile=;
20842      %let _sasiolaFile=;
20843      data null_;
MPRINT(EM_DIAGRAM):    data null_;
20844      length lasrfile sasiolaFile $2000;
MPRINT(EM_DIAGRAM):   length lasrfile sasiolaFile $2000;
20845      LASRFile = pathname("EMWS1")!!"\"!!"HPDM\"!!"hpdmlasr";
MPRINT(EM_DIAGRAM):   LASRFile = pathname("EMWS1")!!"\"!!"HPDM\"!!"hpdmlasr";
20846      SASIOLAFile = pathname("EMWS1")!!"\"!!"HPDM\"!!'sasiola.sas';
MPRINT(EM_DIAGRAM):   SASIOLAFile = pathname("EMWS1")!!"\"!!"HPDM\"!!'sasiola.sas';
20847      call symput('_lasrFile', strip(lasrfile));
MPRINT(EM_DIAGRAM):   call symput('_lasrFile', strip(lasrfile));
20848      call symput('_sasiolaFile', strip(sasiolafile));
MPRINT(EM_DIAGRAM):   call symput('_sasiolaFile', strip(sasiolafile));
20849      run;
MPRINT(EM_DIAGRAM):   run;

NOTE: The data set WORK.NULL_ has 1 observations and 2 variables.
NOTE: DATA statement used (Total process time):
      real time           0.02 seconds
      cpu time            0.01 seconds
      

20850      %let _UseGrid = 0;
20851      %hpdm_performance(data=ORGANICS.ORGANICS, isGrid=_UseGrid);
MPRINT(EM_DIAGRAM):   
MPRINT(HPDM_PERFORMANCE):  ;
PERFORMANCE  DETAILS
MPRINT(EM_DIAGRAM):  ;
20852      %put &_UseGrid;
0
20853      %let em_idskey =;
20854      data _null_;
MPRINT(EM_DIAGRAM):    data _null_;
20855      set EMWS1.Ids_VariableSet;
MPRINT(EM_DIAGRAM):   set EMWS1.Ids_VariableSet;
20856      where ROLE = 'KEY';
MPRINT(EM_DIAGRAM):   where ROLE = 'KEY';
20857      call symput('em_idskey', strip(tranwrd(name, '"', '""')));
MPRINT(EM_DIAGRAM):   call symput('em_idskey', strip(tranwrd(name, '"', '""')));
20858      run;
MPRINT(EM_DIAGRAM):   run;

NOTE: There were 0 observations read from the data set EMWS1.IDS_VARIABLESET.
      WHERE ROLE='KEY';
NOTE: DATA statement used (Total process time):
      real time           0.00 seconds
      cpu time            0.00 seconds
      

20859      %let emexceptionstring=;
20860      %EmAdviseColumns(ORGANICS.ORGANICS, adviseMode=BASIC, applyIntervalLevelLowerLimit=N, applyMaxPercentMissing=N, applyMaxClassLevels=N, identifyEmptyColumns=N, maxLevelDetection=0, outdata=EMWS1.Ids_EMCMETADEFAULT, newdataflag=N);
MPRINT(EM_DIAGRAM):   
MPRINT(EMADVISECOLUMNS):   proc display c=sashelp.emmeta.advisecolumns.scl;
MPRINT(EMADVISECOLUMNS):   run;

20861      %let SYSCC = 0;
20862      %let _dsidTable = 0;
20863      %let _engineTable =;
20864      data _null_;
MPRINT(EMADVISECOLUMNS):    data _null_;
20865      dsid = open('ORGANICS.ORGANICS');
MPRINT(EMADVISECOLUMNS):   dsid = open('ORGANICS.ORGANICS');
20866      call symput('_dsidTable', strip(put(dsid, best.)));
MPRINT(EMADVISECOLUMNS):   call symput('_dsidTable', strip(put(dsid, best.)));
20867      if dsid then do;
MPRINT(EMADVISECOLUMNS):   if dsid then do;
20868      call symput('_engineTable', attrc(dsid, 'ENGINE'));
MPRINT(EMADVISECOLUMNS):   call symput('_engineTable', attrc(dsid, 'ENGINE'));
20869      dsid = close(dsid);
MPRINT(EMADVISECOLUMNS):   dsid = close(dsid);
20870      end;
MPRINT(EMADVISECOLUMNS):   end;
20871      run;
MPRINT(EMADVISECOLUMNS):   run;

NOTE: DATA statement used (Total process time):
      real time           0.00 seconds
      cpu time            0.00 seconds
      

20872      options fmterr;
MPRINT(EMADVISECOLUMNS):    options fmterr;
20873      data _metaTestView;
MPRINT(EMADVISECOLUMNS):   data _metaTestView;
20874      set ORGANICS.ORGANICS;
MPRINT(EMADVISECOLUMNS):   set ORGANICS.ORGANICS;
20875      if _N_=1 then do;
MPRINT(EMADVISECOLUMNS):   if _N_=1 then do;
20876      output;
MPRINT(EMADVISECOLUMNS):   output;
20877      stop;
MPRINT(EMADVISECOLUMNS):   stop;
20878      end;
MPRINT(EMADVISECOLUMNS):   end;
20879      run;
MPRINT(EMADVISECOLUMNS):   run;

NOTE: There were 1 observations read from the data set ORGANICS.ORGANICS.
NOTE: The data set WORK._METATESTVIEW has 1 observations and 18 variables.
NOTE: DATA statement used (Total process time):
      real time           0.02 seconds
      cpu time            0.01 seconds
      

20880      proc contents data=ORGANICS.ORGANICS
20881      out=WORK.M15JG6KE noprint;
MPRINT(EMADVISECOLUMNS):    proc contents data=ORGANICS.ORGANICS out=WORK.M15JG6KE noprint;
20882      run;
MPRINT(EMADVISECOLUMNS):   run;

NOTE: The data set WORK.M15JG6KE has 18 observations and 41 variables.
NOTE: PROCEDURE CONTENTS used (Total process time):
      real time           0.03 seconds
      cpu time            0.00 seconds
      

20883      data WORK.M15JG6KE;
MPRINT(EMADVISECOLUMNS):    data WORK.M15JG6KE;
20884      length NAME $ 64 TYPE $ 1 LABEL $ 200 FORMAT $ 36 INFORMAT $36 INDEX $ 1 INDEXTYPE $ 9;
MPRINT(EMADVISECOLUMNS):   length NAME $ 64 TYPE $ 1 LABEL $ 200 FORMAT $ 36 INFORMAT $36 INDEX $ 1 INDEXTYPE $ 9;
20885      label NAME =;
MPRINT(EMADVISECOLUMNS):   label NAME =;
20886      set WORK.M15JG6KE(keep=name type length label format formatl formatd informat informl informd idxusage rename=(type=itype));
MPRINT(EMADVISECOLUMNS):   set WORK.M15JG6KE(keep=name type length label format formatl formatd informat informl informd idxusage rename=(type=itype));
20887      if itype = 1 then type = 'N';
MPRINT(EMADVISECOLUMNS):   if itype = 1 then type = 'N';
20888      else type = 'C';
MPRINT(EMADVISECOLUMNS):   else type = 'C';
20889      if formatl > 0 then do;
MPRINT(EMADVISECOLUMNS):   if formatl > 0 then do;
20890      if format ne ' ' then format = strip(format)!!strip(put(formatl, best12.))!!'.'!!strip(put(formatd, best12.));
MPRINT(EMADVISECOLUMNS):   if format ne ' ' then format = strip(format)!!strip(put(formatl, best12.))!!'.'!!strip(put(formatd, best12.));
20891      else format = strip(put(formatl, best12.))!!'.'!!strip(put(formatd, best12.));
MPRINT(EMADVISECOLUMNS):   else format = strip(put(formatl, best12.))!!'.'!!strip(put(formatd, best12.));
20892      end;
MPRINT(EMADVISECOLUMNS):   end;
20893      else if format ne '' then format = strip(format)!!'.';
MPRINT(EMADVISECOLUMNS):   else if format ne '' then format = strip(format)!!'.';
20894      if informl > 0 then do;
MPRINT(EMADVISECOLUMNS):   if informl > 0 then do;
20895      if informat ne ' ' then informat = strip(informat)!!strip(put(informl, best12.))!!'.'!!strip(put(informd, best12.));
MPRINT(EMADVISECOLUMNS):   if informat ne ' ' then informat = strip(informat)!!strip(put(informl, best12.))!!'.'!!strip(put(informd, best12.));
20896      else informat = strip(put(informl, best12.))!!'.'!!strip(put(informd, best12.));
MPRINT(EMADVISECOLUMNS):   else informat = strip(put(informl, best12.))!!'.'!!strip(put(informd, best12.));
20897      end;
MPRINT(EMADVISECOLUMNS):   end;
20898      else if informat ne '' then informat = strip(informat)!!'.';
MPRINT(EMADVISECOLUMNS):   else if informat ne '' then informat = strip(informat)!!'.';
20899      if idxusage = 'NONE' then index ="N";
MPRINT(EMADVISECOLUMNS):   if idxusage = 'NONE' then index ="N";
20900      else index = "Y";
MPRINT(EMADVISECOLUMNS):   else index = "Y";
20901      indextype = idxusage;
MPRINT(EMADVISECOLUMNS):   indextype = idxusage;
20902      drop idxusage itype formatl formatd informl informd;
MPRINT(EMADVISECOLUMNS):   drop idxusage itype formatl formatd informl informd;
20903      run;
MPRINT(EMADVISECOLUMNS):   run;

NOTE: There were 18 observations read from the data set WORK.M15JG6KE.
NOTE: The data set WORK.M15JG6KE has 18 observations and 8 variables.
NOTE: DATA statement used (Total process time):
      real time           0.09 seconds
      cpu time            0.03 seconds
      

20904      data WORK.M39BVB2W;
MPRINT(EMADVISECOLUMNS):    data WORK.M39BVB2W;
20905      length UNAME $64;
MPRINT(EMADVISECOLUMNS):   length UNAME $64;
20906      set WORK.M39BVB2W;
MPRINT(EMADVISECOLUMNS):   set WORK.M39BVB2W;
20907      UNAME = upcase(NAME);
MPRINT(EMADVISECOLUMNS):   UNAME = upcase(NAME);
20908      run;
MPRINT(EMADVISECOLUMNS):   run;

NOTE: There were 18 observations read from the data set WORK.M39BVB2W.
NOTE: The data set WORK.M39BVB2W has 18 observations and 22 variables.
NOTE: DATA statement used (Total process time):
      real time           0.05 seconds
      cpu time            0.04 seconds
      

20909      data WORK.M15JG6KE;
MPRINT(EMADVISECOLUMNS):    data WORK.M15JG6KE;
20910      length UNAME $64;
MPRINT(EMADVISECOLUMNS):   length UNAME $64;
20911      set WORK.M15JG6KE;
MPRINT(EMADVISECOLUMNS):   set WORK.M15JG6KE;
20912      UNAME = upcase(NAME);
MPRINT(EMADVISECOLUMNS):   UNAME = upcase(NAME);
20913      run;
MPRINT(EMADVISECOLUMNS):   run;

NOTE: There were 18 observations read from the data set WORK.M15JG6KE.
NOTE: The data set WORK.M15JG6KE has 18 observations and 9 variables.
NOTE: DATA statement used (Total process time):
      real time           0.05 seconds
      cpu time            0.03 seconds
      

MPRINT(EMADVISECOLUMNS):    proc sort data=WORK.M15JG6KE NOTHREADS;
MPRINT(EMADVISECOLUMNS):   by UNAME;
MPRINT(EMADVISECOLUMNS):   run;
MPRINT(EMADVISECOLUMNS):   proc sort data=WORK.M39BVB2W NOTHREADS;
MPRINT(EMADVISECOLUMNS):   by UNAME;
MPRINT(EMADVISECOLUMNS):   run;
MPRINT(EMADVISECOLUMNS):   data WORK.M39BVB2W;
MPRINT(EMADVISECOLUMNS):   merge WORK.M39BVB2W(in=_a) WORK.M15JG6KE(in=_b);
MPRINT(EMADVISECOLUMNS):   by UNAME;
MPRINT(EMADVISECOLUMNS):   if _a and ^_b then delete;
MPRINT(EMADVISECOLUMNS):   run;
20925      data WORK.M39BVB2W;
MPRINT(EMADVISECOLUMNS):    data WORK.M39BVB2W;
20926      drop UNAME;
MPRINT(EMADVISECOLUMNS):   drop UNAME;
20927      set WORK.M39BVB2W;
MPRINT(EMADVISECOLUMNS):   set WORK.M39BVB2W;
20928      run;
MPRINT(EMADVISECOLUMNS):   run;

NOTE: There were 18 observations read from the data set WORK.M39BVB2W.
NOTE: The data set WORK.M39BVB2W has 18 observations and 21 variables.
NOTE: DATA statement used (Total process time):
      real time           0.04 seconds
      cpu time            0.01 seconds
      

MPRINT(EMADVISECOLUMNS):    data WORK.M0K_4SCQ(keep=NAME ATTR);
MPRINT(EMADVISECOLUMNS):   length ATTR $ 20;
MPRINT(EMADVISECOLUMNS):   set WORK.M39BVB2W;
MPRINT(EMADVISECOLUMNS):   if level ne "INTERVAL" then do;
MPRINT(EMADVISECOLUMNS):   if order = ' ' then do;
MPRINT(EMADVISECOLUMNS):   attr = 'ORDER';
MPRINT(EMADVISECOLUMNS):   output;
MPRINT(EMADVISECOLUMNS):   end;
MPRINT(EMADVISECOLUMNS):   end;
MPRINT(EMADVISECOLUMNS):   if format ne ' ' and formattype = ' ' then do;
MPRINT(EMADVISECOLUMNS):   attr = 'FORMATTYPE';
MPRINT(EMADVISECOLUMNS):   output;
MPRINT(EMADVISECOLUMNS):   end;
MPRINT(EMADVISECOLUMNS):   if role = ' ' then do;
MPRINT(EMADVISECOLUMNS):   attr = 'ROLE';
MPRINT(EMADVISECOLUMNS):   output;
MPRINT(EMADVISECOLUMNS):   end;
MPRINT(EMADVISECOLUMNS):   if level = ' ' then do;
MPRINT(EMADVISECOLUMNS):   attr = 'LEVEL';
MPRINT(EMADVISECOLUMNS):   output;
MPRINT(EMADVISECOLUMNS):   end;
MPRINT(EMADVISECOLUMNS):   if type = ' ' then do;
MPRINT(EMADVISECOLUMNS):   attr = 'TYPE';
MPRINT(EMADVISECOLUMNS):   output;
MPRINT(EMADVISECOLUMNS):   end;
MPRINT(EMADVISECOLUMNS):   if index = ' ' then do;
MPRINT(EMADVISECOLUMNS):   attr = 'INDEX';
MPRINT(EMADVISECOLUMNS):   output;
MPRINT(EMADVISECOLUMNS):   end;
MPRINT(EMADVISECOLUMNS):   if report = ' ' then do;
MPRINT(EMADVISECOLUMNS):   attr = 'REPORT';
MPRINT(EMADVISECOLUMNS):   output;
MPRINT(EMADVISECOLUMNS):   end;
MPRINT(EMADVISECOLUMNS):   run;
MPRINT(EMADVISECOLUMNS):   proc sort NOTHREADS;
MPRINT(EMADVISECOLUMNS):   by attr;
MPRINT(EMADVISECOLUMNS):   run;
MPRINT(EMADVISECOLUMNS):    data WORK.M39BVB2W;
MPRINT(EMADVISECOLUMNS):   length NAME $64 ROLE $ 32 LEVEL $ 10 ORDER $ 8 CREATOR $32 FORMATTYPE $ 10 FAMILY $ 10 LOWERLIMIT 8 UPPERLIMIT 8 REPORT $1 DISTRIBUTION $ 20 COMMENT $64;
MPRINT(EMADVISECOLUMNS):   length levelAssigned 8 roleAssigned 8 PRICE 8;
MPRINT(EMADVISECOLUMNS):   set WORK.M39BVB2W;
MPRINT(EMADVISECOLUMNS):   if formattype = ' ' then do;
MPRINT(EMADVISECOLUMNS):   if format ne ' ' then do;
MPRINT(EMADVISECOLUMNS):   if type = 'N' then do;
MPRINT(EMADVISECOLUMNS):   pos = indexc(format,'.1234567890');
MPRINT(EMADVISECOLUMNS):   if pos > 1 then tempfmt = substr(format,1, pos-1);
MPRINT(EMADVISECOLUMNS):   else tempfmt = ' ';
MPRINT(EMADVISECOLUMNS):   flen = length(tempfmt);
MPRINT(EMADVISECOLUMNS):   select;
MPRINT(EMADVISECOLUMNS):   when(tempfmt in ("DATE" "DAY" "DDMMYY" "DOWNAME" "JULDAY" "JULIAN" "MMDDYY" "MMDDYYD" "MMDDYYC" "MMDDYYN" "MMDDYYP" "MMDDYYS" "MONNAME" "MONTH" "MONYY" "NENGO" "QTR" "QTRR" "WEEKDATE" "WEEKDATX" "WEEKDAY" "WORDDATE" "WORDDATX" 
"YEAR" "YYMMDD" "YYMON" "YYMMDDC" "YYMMDDD" "YYMMDDN" "YYMMDDP" "YYMMDDS" "EURDFDE" "NJDATE" "NLDATE" "EURDFDD" "EURDFDWN" "EURDFMN" "EURDFMY" "EURDFWK" "EURDFWKX" "EURDFWDX" "EURDFDN" "EURDFDE" )) formattype = 'DATE';
MPRINT(EMADVISECOLUMNS):   when(tempfmt in ("DATETIME" "EURDFDT" "TOD" )) formattype = "DATETIME";
MPRINT(EMADVISECOLUMNS):   when(tempfmt in ("HHMM" "HOUR" "MMSS" "TIME" "TIMEAMPM" )) formattype = "TIME";
MPRINT(EMADVISECOLUMNS):   when(tempfmt in ("COMMA" "COMMAX" "DOLLAR" "DOLLARX" "E" "FRACT" "NEGPAREN" "PERCENT")) formattype="QUANTITY";
MPRINT(EMADVISECOLUMNS):   when(tempfmt in ("BINARY" "HEX" "IB" "OCTAL" "PD" "PIB" "PK" "RB" "SSN" "Z" "ZD")) formattype = "CODING";
MPRINT(EMADVISECOLUMNS):   otherwise do;
MPRINT(EMADVISECOLUMNS):   formattype = "USER";
MPRINT(EMADVISECOLUMNS):   if substr(tempfmt, 1, 6)='NLDATE' then formattype = "DATE";
MPRINT(EMADVISECOLUMNS):   else if substr(tempfmt, 1, 6)='NLDATM' then formattype = "DATETIME";
MPRINT(EMADVISECOLUMNS):   else if substr(tempfmt, 1, 4)='NLTIM' then formattype = "TIME";
MPRINT(EMADVISECOLUMNS):   else if flen >= 4 then do;
MPRINT(EMADVISECOLUMNS):   str = substr(tempfmt,1,4);
MPRINT(EMADVISECOLUMNS):   if str in ("MMYY" "YYMM" "YYQR") then formattype ="DATE";
MPRINT(EMADVISECOLUMNS):   else if str = "S370" then formattype = "CODING";
MPRINT(EMADVISECOLUMNS):   else if str = "BEST" then formattype = "NUM";
MPRINT(EMADVISECOLUMNS):   drop str;
MPRINT(EMADVISECOLUMNS):   end;
MPRINT(EMADVISECOLUMNS):   else if flen >=3 and substr(tempfmt,1,3) = "YYQ" then formatType = "DATE";
MPRINT(EMADVISECOLUMNS):   end;
MPRINT(EMADVISECOLUMNS):   end;
MPRINT(EMADVISECOLUMNS):   drop flen tempfmt pos;
MPRINT(EMADVISECOLUMNS):   end;
MPRINT(EMADVISECOLUMNS):   else do;
MPRINT(EMADVISECOLUMNS):   formatType = "CATEGORY";
MPRINT(EMADVISECOLUMNS):   end;
MPRINT(EMADVISECOLUMNS):   end;
MPRINT(EMADVISECOLUMNS):   if formatType = "NUM" then do;
MPRINT(EMADVISECOLUMNS):   if index = "Y" then formatType = "DISCRETE";
MPRINT(EMADVISECOLUMNS):   else formatType = "QUANTITY";
MPRINT(EMADVISECOLUMNS):   end;
MPRINT(EMADVISECOLUMNS):   end;
MPRINT(EMADVISECOLUMNS):   if level = ' ' then do;
MPRINT(EMADVISECOLUMNS):   if formatType in ("CATEGORY", "CODING", "ID") or type = "C" then level = "NOMINAL";
MPRINT(EMADVISECOLUMNS):   else level = "INTERVAL";
MPRINT(EMADVISECOLUMNS):   levelAssigned = 1;
MPRINT(EMADVISECOLUMNS):   end;
MPRINT(EMADVISECOLUMNS):   else level = upcase(level);
MPRINT(EMADVISECOLUMNS):   if role = ' ' then do;
MPRINT(EMADVISECOLUMNS):   length name_prefix $8 _uname $64;
MPRINT(EMADVISECOLUMNS):   drop name_prefix _uname _freqflag;
MPRINT(EMADVISECOLUMNS):   retain _freqflag;
MPRINT(EMADVISECOLUMNS):   if LENGTH> 80 then ROLE = 'TEXT';
MPRINT(EMADVISECOLUMNS):   _uname = upcase(NAME);
MPRINT(EMADVISECOLUMNS):   select(_uname);
MPRINT(EMADVISECOLUMNS):   when('_PARTIND_') do;
MPRINT(EMADVISECOLUMNS):   ROLE = 'ID';
MPRINT(EMADVISECOLUMNS):   LEVEL = 'NOMINAL';
MPRINT(EMADVISECOLUMNS):   end;
MPRINT(EMADVISECOLUMNS):   when('_WARN_') ROLE = 'ASSESS';
MPRINT(EMADVISECOLUMNS):   when('EM_SEGMENT') do;
MPRINT(EMADVISECOLUMNS):   ROLE = 'SEGMENT';
MPRINT(EMADVISECOLUMNS):   LEVEL = 'NOMINAL';
MPRINT(EMADVISECOLUMNS):   end;
MPRINT(EMADVISECOLUMNS):   when('_NODE_') do;
MPRINT(EMADVISECOLUMNS):   ROLE = 'SEGMENT';
MPRINT(EMADVISECOLUMNS):   LEVEL = 'NOMINAL';
MPRINT(EMADVISECOLUMNS):   end;
MPRINT(EMADVISECOLUMNS):   when('EM_CLASSTARGET') ROLE = 'ASSESS';
MPRINT(EMADVISECOLUMNS):   when('EM_VALUETARGET') ROLE = 'ASSESS';
MPRINT(EMADVISECOLUMNS):   when('EM_PREDICTION') ROLE = 'PREDICT';
MPRINT(EMADVISECOLUMNS):   when('EM_PROBABILITY') ROLE = 'PREDICT';
MPRINT(EMADVISECOLUMNS):   when('EM_EVENTPROBABILITY') ROLE = 'PREDICT';
MPRINT(EMADVISECOLUMNS):   when('EM_CLASSIFICATION') ROLE = 'CLASSIFICATION';
MPRINT(EMADVISECOLUMNS):   when('EM_DECISION') ROLE = 'DECISION';
MPRINT(EMADVISECOLUMNS):   when('EM_PROFIT') ROLE = 'ASSESS';
MPRINT(EMADVISECOLUMNS):   when('EM_LOSS') ROLE = 'ASSESS';
MPRINT(EMADVISECOLUMNS):   when('EM_ROI') ROLE = 'ASSESS';
MPRINT(EMADVISECOLUMNS):   when('URI') ROLE = 'URL';
MPRINT(EMADVISECOLUMNS):   when('FILTERED') ROLE = 'TEXTLOC';
MPRINT(EMADVISECOLUMNS):   otherwise do;
MPRINT(EMADVISECOLUMNS):   if upcase(NAME) =: 'ZIP' then do;
MPRINT(EMADVISECOLUMNS):   ROLE = 'REJECTED';
MPRINT(EMADVISECOLUMNS):   LEVEL = 'NOMINAL';
MPRINT(EMADVISECOLUMNS):   COMMENT = 'Rejected by: Exceed the maximum class level of %s';
MPRINT(EMADVISECOLUMNS):   end;
MPRINT(EMADVISECOLUMNS):   else if upcase(NAME) in('FREQ', 'FREQUENCY') then do;
MPRINT(EMADVISECOLUMNS):   ROLE = 'FREQ';
MPRINT(EMADVISECOLUMNS):   if TYPE = 'C' then ROLE = 'INPUT';
MPRINT(EMADVISECOLUMNS):   else if _freqflag =1 then ROLE='REJECTED';
MPRINT(EMADVISECOLUMNS):   end;
MPRINT(EMADVISECOLUMNS):   else do;
MPRINT(EMADVISECOLUMNS):   name_prefix = scan(_uname, 1, '_');
MPRINT(EMADVISECOLUMNS):   if scan(_uname, 2, '_') = '' then name_prefix='';
MPRINT(EMADVISECOLUMNS):   if name_prefix in('F', 'I', 'U') then do;
MPRINT(EMADVISECOLUMNS):   ROLE = 'CLASSIFICATION';
MPRINT(EMADVISECOLUMNS):   LEVEL = 'NOMINAL';
MPRINT(EMADVISECOLUMNS):   end;
MPRINT(EMADVISECOLUMNS):   else if name_prefix in('P', 'V') then ROLE = 'PREDICT';
MPRINT(EMADVISECOLUMNS):   else if name_prefix in('R', 'RS', 'RT', 'RD', 'RDS', 'RDT', 'RA', 'RAS', 'RAT') then ROLE = 'RESIDUAL';
MPRINT(EMADVISECOLUMNS):   else if name_prefix ='D' then do;
MPRINT(EMADVISECOLUMNS):   ROLE = 'DECISION';
MPRINT(EMADVISECOLUMNS):   LEVEL = 'NOMINAL';
MPRINT(EMADVISECOLUMNS):   end;
MPRINT(EMADVISECOLUMNS):   else if name_prefix ='B' then do;
MPRINT(EMADVISECOLUMNS):   ROLE = 'SEGMENT';
MPRINT(EMADVISECOLUMNS):   LEVEL = 'NOMINAL';
MPRINT(EMADVISECOLUMNS):   end;
MPRINT(EMADVISECOLUMNS):   else if name_prefix in('EP', 'BP', 'CP', 'EL', 'CL', 'BL', 'W', 'ROI', 'IC') then ROLE = 'ASSESS';
MPRINT(EMADVISECOLUMNS):   else do;
MPRINT(EMADVISECOLUMNS):   array _ROLE_ (19) $32 _TEMPORARY_ ('ASSESS','CLASSIFICATION','CENSOR', 'COST', 'CROSSID', 'DECISION', 'ID','INPUT', 'LABEL', 'MISSING','PREDICT','REFERRER','REJECTED', 'RESIDUAL','SEGMENT', 'SEQUENCE','TARGET', 'TEXT', 'TIMEID');
MPRINT(EMADVISECOLUMNS):   drop _found_ i;
MPRINT(EMADVISECOLUMNS):   _found_=0;
MPRINT(EMADVISECOLUMNS):   do i=1 to 19 until(_found_=1);
MPRINT(EMADVISECOLUMNS):   if index(_uname, trim(_ROLE_{i}))=1 then do;
MPRINT(EMADVISECOLUMNS):   ROLE=_ROLE_{i};
MPRINT(EMADVISECOLUMNS):   if ROLE = 'ID' then LEVEL = 'NOMINAL';
MPRINT(EMADVISECOLUMNS):   else if ROLE = 'SEGMENT' then LEVEL = 'NOMINAL';
MPRINT(EMADVISECOLUMNS):   else if ROLE = 'TIMEID' and TYPE='N' then LEVEL = 'INTERVAL';
MPRINT(EMADVISECOLUMNS):   _found_=1;
MPRINT(EMADVISECOLUMNS):   end;
MPRINT(EMADVISECOLUMNS):   end;
MPRINT(EMADVISECOLUMNS):   if length(_uname)>2 then do;
MPRINT(EMADVISECOLUMNS):   if substr(reverse(trim(_uname)), 1, 3) = 'DI_' then do;
MPRINT(EMADVISECOLUMNS):   ROLE = 'ID';
MPRINT(EMADVISECOLUMNS):   LEVEL = 'NOMINAL';
MPRINT(EMADVISECOLUMNS):   end;
MPRINT(EMADVISECOLUMNS):   end;
MPRINT(EMADVISECOLUMNS):   end;
MPRINT(EMADVISECOLUMNS):   end;
MPRINT(EMADVISECOLUMNS):   end;
MPRINT(EMADVISECOLUMNS):   end;
MPRINT(EMADVISECOLUMNS):   if ROLE='FREQ' then _freqflag=1;
MPRINT(EMADVISECOLUMNS):   else if ROLE = 'CLASSIFICATION' then LEVEL = 'NOMINAL';
MPRINT(EMADVISECOLUMNS):   if symexist('RATEMKG_ROLE') then do;
MPRINT(EMADVISECOLUMNS):   if upcase(symget('RATEMKG_ROLE')) in('Y', 'YES') then do;
MPRINT(EMADVISECOLUMNS):   if _uname =: 'POLICY' then ROLE = 'POLICYID';
MPRINT(EMADVISECOLUMNS):   else if _uname in ('PARTITION', '_PARTIND_') then ROLE = 'PARTITION';
MPRINT(EMADVISECOLUMNS):   else if type = 'N' then do;
MPRINT(EMADVISECOLUMNS):   if _uname = 'EXPOSURE' then ROLE = 'EXPOSURE';
MPRINT(EMADVISECOLUMNS):   else if _uname = 'YEAR' then ROLE = 'YEAR';
MPRINT(EMADVISECOLUMNS):   else if _uname = 'WEIGHT' then ROLE = 'WEIGHT';
MPRINT(EMADVISECOLUMNS):   else if _uname = 'OFFSET' then ROLE = 'OFFSET';
MPRINT(EMADVISECOLUMNS):   end;
MPRINT(EMADVISECOLUMNS):   end;
MPRINT(EMADVISECOLUMNS):   end;
MPRINT(EMADVISECOLUMNS):   end;
MPRINT(EMADVISECOLUMNS):   if role = ' ' then do;
MPRINT(EMADVISECOLUMNS):   if formattype in('DATE', 'DATETIME', 'TIME') then role = 'TIMEID';
MPRINT(EMADVISECOLUMNS):   else role = 'INPUT';
MPRINT(EMADVISECOLUMNS):   roleAssigned = 1;
MPRINT(EMADVISECOLUMNS):   end;
MPRINT(EMADVISECOLUMNS):   else role = upcase(role);
MPRINT(EMADVISECOLUMNS):   if REPORT = '' then REPORT = 'N';
MPRINT(EMADVISECOLUMNS):   run;
MPRINT(EMADVISECOLUMNS):    data WORK.M39BVB2W;
MPRINT(EMADVISECOLUMNS):   set WORK.M39BVB2W;
MPRINT(EMADVISECOLUMNS):   label NAME = "Variable Name" TYPE = "Type" ROLE = "Role" LEVEL= "Measurement Level" ORDER= "Order" CREATOR= "Creator" FORMATTYPE= "Format Type" FAMILY= "Family" DISTRIBUTION= "Distribution" PRICE= "Price" LOWERLIMIT= "Lower 
limit" UPPERLIMIT= "Upper Limit" REPORT= "Report" COMMENT= "Comment" INDEX= "Index" INDEXTYPE= "IndexType" LABEL= "Label" LENGTH= "Length";
MPRINT(EMADVISECOLUMNS):   drop levelAssigned roleAssigned;
MPRINT(EMADVISECOLUMNS):   run;
NOTE: PROCEDURE DISPLAY used (Total process time):
      real time           1.44 seconds
      cpu time            0.62 seconds
      

MPRINT(EMADVISECOLUMNS):   
MPRINT(EM_DIAGRAM):  ;

21171      %EmAdviseTable(ORGANICS.ORGANICS, outdata=EMWS1.Ids_EMTMETADEFAULT, newdataflag=N);
MPRINT(EM_DIAGRAM):   
MPRINT(EMADVISETABLE):   proc display c=sashelp.emmeta.advisetable.scl;
MPRINT(EMADVISETABLE):   run;

21172      %let SYSCC = 0;
21173      data EMWS1.Ids_EMTMETADEFAULT;
MPRINT(EMADVISETABLE):    data EMWS1.Ids_EMTMETADEFAULT;
21174      set EMWS1.Ids_EMTMETADEFAULT;
MPRINT(EMADVISETABLE):   set EMWS1.Ids_EMTMETADEFAULT;
21175      length LIBNAME $8;
MPRINT(EMADVISETABLE):   length LIBNAME $8;
21176      LIBNAME = "ORGANICS";
MPRINT(EMADVISETABLE):   LIBNAME = "ORGANICS";
21177      run;
MPRINT(EMADVISETABLE):   run;

NOTE: There were 1 observations read from the data set EMWS1.IDS_EMTMETADEFAULT.
NOTE: The data set EMWS1.IDS_EMTMETADEFAULT has 1 observations and 15 variables.
NOTE: DATA statement used (Total process time):
      real time           0.02 seconds
      cpu time            0.00 seconds
      

MPRINT(EMADVISETABLE):    data _null_;
MPRINT(EMADVISETABLE):   dsid = open("ORGANICS.ORGANICS");
MPRINT(EMADVISETABLE):   call symput("_DSID", put(dsid,BEST.));
MPRINT(EMADVISETABLE):   if dsid > 0 then dsid = close(dsid);
MPRINT(EMADVISETABLE):   run;
MPRINT(EMADVISETABLE):    ods output enginehost=em_tablehost;
MPRINT(EMADVISETABLE):   ods listing close;
MPRINT(EMADVISETABLE):   proc contents data=ORGANICS.ORGANICS;
MPRINT(EMADVISETABLE):   run;
MPRINT(EMADVISETABLE):   ods listing;
MPRINT(EMADVISETABLE):    data WORK.M38FZ_KV;
MPRINT(EMADVISETABLE):   length MEMNAME $ 32 MEMTYPE $ 8 MEMLABEL $ 256 TYPEMEM $ 8 ENGINE $ 8 CRDATE 8 MODATE 8 NOBS 8 NCOLS 8 NBYTES 8 ROLE $ 20 USEEXTERNALDATA $1 SAMPLINGRATE 8 SEGMENT $ 20;
MPRINT(EMADVISETABLE):   set WORK.M38FZ_KV(obs=1);
MPRINT(EMADVISETABLE):   nobs = 22223;
MPRINT(EMADVISETABLE):   ncols = 18;
MPRINT(EMADVISETABLE):   nbytes = 2888704;
MPRINT(EMADVISETABLE):   memname = "ORGANICS";
MPRINT(EMADVISETABLE):   memtype = "DATA    ";
MPRINT(EMADVISETABLE):   memlabel = "";
MPRINT(EMADVISETABLE):   typemem = "DATA    ";
MPRINT(EMADVISETABLE):   engine = "BASE    ";
MPRINT(EMADVISETABLE):   crdate = 1332417891.167;
MPRINT(EMADVISETABLE):   modate = 1332417891.167;
MPRINT(EMADVISETABLE):   format crdate datetime16.;
MPRINT(EMADVISETABLE):   format modate datetime16.;
MPRINT(EMADVISETABLE):   if role = ' ' then role = 'TRAIN';
MPRINT(EMADVISETABLE):   output;
MPRINT(EMADVISETABLE):   run;
NOTE: PROCEDURE DISPLAY used (Total process time):
      real time           0.63 seconds
      cpu time            0.20 seconds
      

MPRINT(EMADVISETABLE):   
MPRINT(EM_DIAGRAM):  ;

21206      data EMWS1.Ids_EMCMETADEFAULT;
MPRINT(EM_DIAGRAM):    data EMWS1.Ids_EMCMETADEFAULT;
21207      set EMWS1.Ids_EMCMETADEFAULT;
MPRINT(EM_DIAGRAM):   set EMWS1.Ids_EMCMETADEFAULT;
21208      label DROP = "%sysfunc(sasmsg(sashelp.dmine, meta_drop_vlabel, NOQUOTE))";
MPRINT(EM_DIAGRAM):   label DROP = "Drop";
21209      if DROP='' then DROP='N';
MPRINT(EM_DIAGRAM):   if DROP='' then DROP='N';
21210      if type='C' and level='INTERVAL' then level='NOMINAL';
MPRINT(EM_DIAGRAM):   if type='C' and level='INTERVAL' then level='NOMINAL';
21211      if type='C' and role='FREQ' then role='INPUT';
MPRINT(EM_DIAGRAM):   if type='C' and role='FREQ' then role='INPUT';
21212      run;
MPRINT(EM_DIAGRAM):   run;

NOTE: There were 18 observations read from the data set EMWS1.IDS_EMCMETADEFAULT.
NOTE: The data set EMWS1.IDS_EMCMETADEFAULT has 18 observations and 21 variables.
NOTE: DATA statement used (Total process time):
      real time           0.03 seconds
      cpu time            0.01 seconds
      

21213      proc sort data=EMWS1.Ids_EMCMETADEFAULT;
MPRINT(EM_DIAGRAM):    proc sort data=EMWS1.Ids_EMCMETADEFAULT;
21214      by NAME;
MPRINT(EM_DIAGRAM):   by NAME;
21215      run;
MPRINT(EM_DIAGRAM):   run;

NOTE: There were 18 observations read from the data set EMWS1.IDS_EMCMETADEFAULT.
NOTE: The data set EMWS1.IDS_EMCMETADEFAULT has 18 observations and 21 variables.
NOTE: PROCEDURE SORT used (Total process time):
      real time           0.04 seconds
      cpu time            0.01 seconds
      

21216      proc sort data=EMWS1.Ids_VariableSet;
MPRINT(EM_DIAGRAM):   proc sort data=EMWS1.Ids_VariableSet;
21217      by NAME;
MPRINT(EM_DIAGRAM):   by NAME;
21218      run;
MPRINT(EM_DIAGRAM):   run;

NOTE: There were 18 observations read from the data set EMWS1.IDS_VARIABLESET.
NOTE: The data set EMWS1.IDS_VARIABLESET has 18 observations and 21 variables.
NOTE: PROCEDURE SORT used (Total process time):
      real time           0.03 seconds
      cpu time            0.03 seconds
      

21219      data EMWS1.Ids_VariableSet;
MPRINT(EM_DIAGRAM):   data EMWS1.Ids_VariableSet;
21220      merge EMWS1.Ids_EMCMETADEFAULT(in=_a) EMWS1.Ids_VariableSet(keep=NAME ROLE LEVEL ORDER DROP TYPE LOWERLIMIT UPPERLIMIT rename=(TYPE=OLDTYPE) in=_b);
MPRINT(EM_DIAGRAM):   merge EMWS1.Ids_EMCMETADEFAULT(in=_a) EMWS1.Ids_VariableSet(keep=NAME ROLE LEVEL ORDER DROP TYPE LOWERLIMIT UPPERLIMIT rename=(TYPE=OLDTYPE) in=_b);
21221      by NAME;
MPRINT(EM_DIAGRAM):   by NAME;
21222      if ^_a and _b then delete;
MPRINT(EM_DIAGRAM):   if ^_a and _b then delete;
21223      if type='C' and level='INTERVAL' then level='NOMINAL';
MPRINT(EM_DIAGRAM):   if type='C' and level='INTERVAL' then level='NOMINAL';
21224      if type='C' and role='FREQ' then role='INPUT';
MPRINT(EM_DIAGRAM):   if type='C' and role='FREQ' then role='INPUT';
21225      if (type ne oldtype) and (_a and _b) then do;
MPRINT(EM_DIAGRAM):   if (type ne oldtype) and (_a and _b) then do;
21226      if type ='N' then level='INTERVAL';
MPRINT(EM_DIAGRAM):   if type ='N' then level='INTERVAL';
21227      end;
MPRINT(EM_DIAGRAM):   end;
21228      drop oldtype;
MPRINT(EM_DIAGRAM):   drop oldtype;
21229      run;
MPRINT(EM_DIAGRAM):   run;

NOTE: There were 18 observations read from the data set EMWS1.IDS_EMCMETADEFAULT.
NOTE: There were 18 observations read from the data set EMWS1.IDS_VARIABLESET.
NOTE: The data set EMWS1.IDS_VARIABLESET has 18 observations and 21 variables.
NOTE: DATA statement used (Total process time):
      real time           0.04 seconds
      cpu time            0.00 seconds
      

21230      data EMWS1.Ids_CMeta_DATA;
MPRINT(EM_DIAGRAM):    data EMWS1.Ids_CMeta_DATA;
21231      set WORK.M2UYPSBI;
MPRINT(EM_DIAGRAM):   set WORK.M2UYPSBI;
21232      drop DROP;
MPRINT(EM_DIAGRAM):   drop DROP;
21233      where DROP='N';
MPRINT(EM_DIAGRAM):   where DROP='N';
21234      run;
MPRINT(EM_DIAGRAM):   run;

NOTE: There were 18 observations read from the data set WORK.M2UYPSBI.
      WHERE DROP='N';
NOTE: The data set EMWS1.IDS_CMETA_DATA has 18 observations and 20 variables.
NOTE: DATA statement used (Total process time):
      real time           0.04 seconds
      cpu time            0.01 seconds
      

*------------------------------------------------------------* 
Ids: Using "ORGANICS.ORGANICS" data source 
*------------------------------------------------------------* 
21235      *------------------------------------------------------------*;
MPRINT(EM_DIAGRAM):    *------------------------------------------------------------*;
21236      * Ids: Creating DATA data;
MPRINT(EM_DIAGRAM):   * Ids: Creating DATA data;
21237      *------------------------------------------------------------*;
MPRINT(EM_DIAGRAM):   *------------------------------------------------------------*;
21238      data EMWS1.Ids_DATA (label="")
21239      / view=EMWS1.Ids_DATA
21240      ;
MPRINT(EM_DIAGRAM):   data EMWS1.Ids_DATA (label="") / view=EMWS1.Ids_DATA ;
21241      set ORGANICS.ORGANICS;
MPRINT(EM_DIAGRAM):   set ORGANICS.ORGANICS;
21242      run;
MPRINT(EM_DIAGRAM):   run;

NOTE: DATA STEP view saved on file EMWS1.IDS_DATA.
NOTE: A stored DATA STEP view cannot run under a different operating system.
NOTE: DATA statement used (Total process time):
      real time           0.05 seconds
      cpu time            0.01 seconds
      

21243      data WORK.IDSOUTPUT;
MPRINT(EM_DIAGRAM):    data WORK.IDSOUTPUT;
21244      length ATTRIBUTE $20 LABEL $50 VALUE $50;
MPRINT(EM_DIAGRAM):   length ATTRIBUTE $20 LABEL $50 VALUE $50;
21245      label LABEL= "%sysfunc(sasmsg(sashelp.dmine, rpt_attribute_vlabel,   NOQUOTE))";
MPRINT(EM_DIAGRAM):   label LABEL= "Attribute";
21246      label VALUE= "%sysfunc(sasmsg(sashelp.dmine, rpt_value_vlabel,       NOQUOTE))";
MPRINT(EM_DIAGRAM):   label VALUE= "Value";
21247      ATTRIBUTE = 'OUTPUT';
MPRINT(EM_DIAGRAM):   ATTRIBUTE = 'OUTPUT';
21248      LABEL = "%sysfunc(sasmsg(sashelp.dmine, rpt_labeloutput_value , NOQUOTE))";
MPRINT(EM_DIAGRAM):   LABEL = "Output Table";
21249      VALUE = "EMWS1.Ids_DATA";
MPRINT(EM_DIAGRAM):   VALUE = "EMWS1.Ids_DATA";
21250      output;
MPRINT(EM_DIAGRAM):   output;
21251      ATTRIBUTE = 'OUTPUTTYPE';
MPRINT(EM_DIAGRAM):   ATTRIBUTE = 'OUTPUTTYPE';
21252      LABEL = "%sysfunc(sasmsg(sashelp.dmine, rpt_labeloutputtype_value, NOQUOTE))";
MPRINT(EM_DIAGRAM):   LABEL = "Output Type";
21253      VALUE = "View";
MPRINT(EM_DIAGRAM):   VALUE = "View";
21254      output;
MPRINT(EM_DIAGRAM):   output;
21255      ATTRIBUTE = 'DROPVARS';
MPRINT(EM_DIAGRAM):   ATTRIBUTE = 'DROPVARS';
21256      LABEL = "%sysfunc(sasmsg(sashelp.dmine, rpt_labeldropvars_value, NOQUOTE))";
MPRINT(EM_DIAGRAM):   LABEL = "Dropped Variables";
21257      VALUE = "0";
MPRINT(EM_DIAGRAM):   VALUE = "0";
21258      output;
MPRINT(EM_DIAGRAM):   output;
21259      ATTRIBUTE = 'ROLE';
MPRINT(EM_DIAGRAM):   ATTRIBUTE = 'ROLE';
21260      LABEL = "%sysfunc(sasmsg(sashelp.dmine, rpt_labelrole_value , NOQUOTE))";
MPRINT(EM_DIAGRAM):   LABEL = "Data Mining Role";
21261      VALUE = "Raw";
MPRINT(EM_DIAGRAM):   VALUE = "Raw";
21262      output;
MPRINT(EM_DIAGRAM):   output;
21263      run;
MPRINT(EM_DIAGRAM):   run;

NOTE: The data set WORK.IDSOUTPUT has 4 observations and 3 variables.
NOTE: DATA statement used (Total process time):
      real time           0.05 seconds
      cpu time            0.03 seconds
      

21264      proc print data=WORK.IDSOUTPUT noobs label;
MPRINT(EM_DIAGRAM):   proc print data=WORK.IDSOUTPUT noobs label;
21265      var label value;
MPRINT(EM_DIAGRAM):   var label value;
21266      title9 ' ';
MPRINT(EM_DIAGRAM):   title9 ' ';
21267      title10 "%sysfunc(sasmsg(sashelp.dmine, rpt_outTableAttr_title, NOQUOTE))";
MPRINT(EM_DIAGRAM):   title10 "Output Table Attributes";
MPRINT(EM_DIAGRAM):   run;
21268      run;

NOTE: There were 4 observations read from the data set WORK.IDSOUTPUT.
NOTE: The PROCEDURE PRINT printed page 2.
NOTE: PROCEDURE PRINT used (Total process time):
      real time           0.00 seconds
      cpu time            0.01 seconds
      

21269      title10;
MPRINT(EM_DIAGRAM):   title10;
21270      proc contents noprint data=ORGANICS.ORGANICS out=WORK.IDSCONTENT(drop=NAME TYPE LENGTH VARNUM LABEL FORMAT FORMATL FORMATD INFORMAT INFORML INFORMD JUST NPOS);
MPRINT(EM_DIAGRAM):    proc contents noprint data=ORGANICS.ORGANICS out=WORK.IDSCONTENT(drop=NAME TYPE LENGTH VARNUM LABEL FORMAT FORMATL FORMATD INFORMAT INFORML INFORMD JUST NPOS);
21271      run;
MPRINT(EM_DIAGRAM):   run;

NOTE: The data set WORK.IDSCONTENT has 18 observations and 28 variables.
NOTE: PROCEDURE CONTENTS used (Total process time):
      real time           0.05 seconds
      cpu time            0.01 seconds
      

21272      data WORK.IDSCONTENT;
MPRINT(EM_DIAGRAM):   data WORK.IDSCONTENT;
21273      set WORK.IDSCONTENT end=eof;
MPRINT(EM_DIAGRAM):   set WORK.IDSCONTENT end=eof;
21274      if eof then do;
MPRINT(EM_DIAGRAM):   if eof then do;
21275      NVARS = _n_;
MPRINT(EM_DIAGRAM):   NVARS = _n_;
21276      output;
MPRINT(EM_DIAGRAM):   output;
21277      end;
MPRINT(EM_DIAGRAM):   end;
21278      run;
MPRINT(EM_DIAGRAM):   run;

NOTE: There were 18 observations read from the data set WORK.IDSCONTENT.
NOTE: The data set WORK.IDSCONTENT has 1 observations and 29 variables.
NOTE: DATA statement used (Total process time):
      real time           0.03 seconds
      cpu time            0.01 seconds
      

21279      data WORK.IDSOUTPUT(keep=ATTRIBUTE LABEL VALUE);
MPRINT(EM_DIAGRAM):   data WORK.IDSOUTPUT(keep=ATTRIBUTE LABEL VALUE);
21280      length ATTRIBUTE $20 LABEL $50 VALUE $80;
MPRINT(EM_DIAGRAM):   length ATTRIBUTE $20 LABEL $50 VALUE $80;
21281      label LABEL= "%sysfunc(sasmsg(sashelp.dmine, rpt_attribute_vlabel,   NOQUOTE))";
MPRINT(EM_DIAGRAM):   label LABEL= "Attribute";
21282      label VALUE= "%sysfunc(sasmsg(sashelp.dmine, rpt_value_vlabel,       NOQUOTE))";
MPRINT(EM_DIAGRAM):   label VALUE= "Value";
21283      ;
MPRINT(EM_DIAGRAM):   ;
21284      dsid = open("WORK.IDSCONTENT");
MPRINT(EM_DIAGRAM):   dsid = open("WORK.IDSCONTENT");
21285      rc = fetch(dsid);
MPRINT(EM_DIAGRAM):   rc = fetch(dsid);
21286      nvars = attrn(dsid, 'NVARS');
MPRINT(EM_DIAGRAM):   nvars = attrn(dsid, 'NVARS');
21287      nobs = attrn(dsid, 'NOBS');
MPRINT(EM_DIAGRAM):   nobs = attrn(dsid, 'NOBS');
21288      ATTRIBUTE = 'DATASOURCE';
MPRINT(EM_DIAGRAM):   ATTRIBUTE = 'DATASOURCE';
21289      LABEL = "%sysfunc(sasmsg(sashelp.dmine, meta_datasource_vlabel, NOQUOTE))";
MPRINT(EM_DIAGRAM):   LABEL = "Data Source";
21290      VALUE="organics";
MPRINT(EM_DIAGRAM):   VALUE="organics";
21291      output;
MPRINT(EM_DIAGRAM):   output;
21292      ATTRIBUTE = '';
MPRINT(EM_DIAGRAM):   ATTRIBUTE = '';
21293      LABEL = '';
MPRINT(EM_DIAGRAM):   LABEL = '';
21294      VALUE='';
MPRINT(EM_DIAGRAM):   VALUE='';
21295      output;
MPRINT(EM_DIAGRAM):   output;
21296      do i=1 to nvars;
MPRINT(EM_DIAGRAM):   do i=1 to nvars;
21297      ATTRIBUTE = varname(dsid, i);
MPRINT(EM_DIAGRAM):   ATTRIBUTE = varname(dsid, i);
21298      LABEL = varlabel(dsid, i);
MPRINT(EM_DIAGRAM):   LABEL = varlabel(dsid, i);
21299      if vartype(dsid,i)='C' then do;
MPRINT(EM_DIAGRAM):   if vartype(dsid,i)='C' then do;
21300      VALUE = getvarc(dsid, i);
MPRINT(EM_DIAGRAM):   VALUE = getvarc(dsid, i);
21301      end;
MPRINT(EM_DIAGRAM):   end;
21302      else do;
MPRINT(EM_DIAGRAM):   else do;
21303      NVALUE = getvarn(dsid, i);
MPRINT(EM_DIAGRAM):   NVALUE = getvarn(dsid, i);
21304      if ATTRIBUTE in('CRDATE', 'MODATE') then VALUE = left(put(NVALUE, NLDATM20.));
MPRINT(EM_DIAGRAM):   if ATTRIBUTE in('CRDATE', 'MODATE') then VALUE = left(put(NVALUE, NLDATM20.));
21305      else VALUE = left(put(NVALUE, BEST12.));
MPRINT(EM_DIAGRAM):   else VALUE = left(put(NVALUE, BEST12.));
21306      end;
MPRINT(EM_DIAGRAM):   end;
21307      if ATTRIBUTE = 'NVARS' then do;
MPRINT(EM_DIAGRAM):   if ATTRIBUTE = 'NVARS' then do;
21308      LABEL = "%sysfunc(sasmsg(sashelp.dmine, rpt_labelvariables_value, NOQUOTE))";
MPRINT(EM_DIAGRAM):   LABEL = "Variables";
21309      end;
MPRINT(EM_DIAGRAM):   end;
21310      output;
MPRINT(EM_DIAGRAM):   output;
21311      end;
MPRINT(EM_DIAGRAM):   end;
21312      dsid=close(dsid);
MPRINT(EM_DIAGRAM):   dsid=close(dsid);
21313      run;
MPRINT(EM_DIAGRAM):   run;

NOTE: The data set WORK.IDSOUTPUT has 31 observations and 3 variables.
NOTE: DATA statement used (Total process time):
      real time           0.05 seconds
      cpu time            0.04 seconds
      

21314      proc print data=WORK.IDSOUTPUT noobs label;
MPRINT(EM_DIAGRAM):   proc print data=WORK.IDSOUTPUT noobs label;
21315      var label value;
MPRINT(EM_DIAGRAM):   var label value;
21316      title9 ' ';
MPRINT(EM_DIAGRAM):   title9 ' ';
21317      title10 "%sysfunc(sasmsg(sashelp.dmine, rpt_inTableAttr_title, NOQUOTE))";
MPRINT(EM_DIAGRAM):   title10 "Input Table Attributes";
MPRINT(EM_DIAGRAM):   run;
21318      run;

NOTE: There were 31 observations read from the data set WORK.IDSOUTPUT.
NOTE: The PROCEDURE PRINT printed page 3.
NOTE: PROCEDURE PRINT used (Total process time):
      real time           0.01 seconds
      cpu time            0.01 seconds
      

MPRINT(EM_DIAGRAM):    proc dmdb data=ORGANICS.ORGANICS maxlevel=32 classOut=WORK._IDS_DMDBClass ;
MPRINT(EM_DIAGRAM):   class "ORGYN"n (DESC) ;
MPRINT(EM_DIAGRAM):   run;
MPRINT(EM_DIAGRAM):    proc sort data=WORK._IDS_DMDBClass;
MPRINT(EM_DIAGRAM):   by NAME;
MPRINT(EM_DIAGRAM):   run;
MPRINT(EM_DIAGRAM):    data WORK.M2CRX44R;
MPRINT(EM_DIAGRAM):   set WORK.M2CRX44R;
MPRINT(EM_DIAGRAM):   where ROLE = 'FREQ' or NAME = "ORGYN";
MPRINT(EM_DIAGRAM):   run;
MPRINT(EM_DIAGRAM):    data _null_;
MPRINT(EM_DIAGRAM):   set WORK._IDS_DMDBClass end=eof;
MPRINT(EM_DIAGRAM):   where NAME="ORGYN" and strip(LEVEL) ^in('', '.');
MPRINT(EM_DIAGRAM):   if _N_=1 then do;
MPRINT(EM_DIAGRAM):   call execute("data WORK_TPTRAIN;");
MPRINT(EM_DIAGRAM):   call execute("format ORGYN BEST12.0;");
MPRINT(EM_DIAGRAM):   end;
MPRINT(EM_DIAGRAM):   call execute("ORGYN"!!'='!!strip(put(NRAW, best.))!!'; output;');
MPRINT(EM_DIAGRAM):   if eof then do;
MPRINT(EM_DIAGRAM):   call execute('run;');
MPRINT(EM_DIAGRAM):   end;
MPRINT(EM_DIAGRAM):   run;
MPRINT(EM_DIAGRAM):   data WORK_TPTRAIN;
MPRINT(EM_DIAGRAM):   format ORGYN BEST12.0;
MPRINT(EM_DIAGRAM):   ORGYN=1;
MPRINT(EM_DIAGRAM):   output;
MPRINT(EM_DIAGRAM):   ORGYN=0;
MPRINT(EM_DIAGRAM):   output;
MPRINT(EM_DIAGRAM):   run;
WORK_TPTRAIN WORK.WORK_TPTRAIN 
WORK_TPTRAIN WORK.WORK_TPTRAIN WORK WORK_TPTRAIN 
WORK.WORK_TPTRAIN WORK.WORK_TPTRAIN 
WORK.WORK_TPTRAIN WORK.WORK_TPTRAIN WORK WORK_TPTRAIN 
>>>>>>>>>>>>>> TARGET(   NAME='ORGYN' 
                         ROLE='TARGET' 
                         LEVEL='BINARY' 
                         ORDER='' 
                         CREATOR='' 
                         FORMATTYPE='QUANTITY' 
                         FAMILY='' 
                         LOWERLIMIT=. 
                         UPPERLIMIT=. 
                         REPORT='N' 
                         DISTRIBUTION='' 
                         COMMENT='' 
                         PRICE=. 
                         TYPE='N' 
                         LABEL='Organics Purchased?' 
                         FORMAT='BEST12.0' 
                         INFORMAT='F12.0' 
                         INDEX='N' 
                         INDEXTYPE='NONE' 
                         LENGTH=8 
                         DROP='N' 
                      )[15689] 
MPRINT(EM_DIAGRAM):   
MPRINT(HPDM_PERFORMANCE):  ;
PERFORMANCE  DETAILS
MPRINT(EM_DIAGRAM):  ;
MPRINT(EM_DIAGRAM):    *------------------------------------------------------------* ;
MPRINT(EM_DIAGRAM):   * EM: DMDBClass Macro ;
MPRINT(EM_DIAGRAM):   *------------------------------------------------------------* ;
MPRINT(EM_DIAGRAM):   *------------------------------------------------------------* ;
MPRINT(EM_DIAGRAM):   * EM: DMDBVar Macro ;
MPRINT(EM_DIAGRAM):   *------------------------------------------------------------* ;
MPRINT(EM_DIAGRAM):   *------------------------------------------------------------*;
MPRINT(EM_DIAGRAM):   * EM: Create DMDB;
MPRINT(EM_DIAGRAM):   *------------------------------------------------------------*;
MPRINT(EM_DIAGRAM):   proc dmdb batch data=WORK.WORK_TPTRAIN dmdbcat=WORK.EM_DMDB maxlevel = 513 ;
MPRINT(EM_DIAGRAM):   class
MPRINT(DMDBCLASS):   ORGYN(DESC)
MPRINT(EM_DIAGRAM):  ;
MPRINT(EM_DIAGRAM):   target ORGYN ;
MPRINT(EM_DIAGRAM):   run;
MPRINT(EM_DIAGRAM):   quit;
MPRINT(EM_DIAGRAM):   *--- end code ---*;
WORK.EM_DMDB WORK.EM_DMDB 
WORK.EM_DMDB WORK.EM_DMDB WORK EM_DMDB 
MPRINT(EM_DIAGRAM):    proc datasets lib=EMWS1 nolist;
MPRINT(EM_DIAGRAM):   modify Ids_ORGYN_DD(type=PROFIT label= ORGYN);
MPRINT(EM_DIAGRAM):   run;
MPRINT(EM_DIAGRAM):   quit;
MPRINT(EM_DIAGRAM):    data _classPercent;
MPRINT(EM_DIAGRAM):   set WORK._IDS_DMDBClass end=eof;
MPRINT(EM_DIAGRAM):   where NAME="ORGYN" and LEVEL ^in('', '.');
MPRINT(EM_DIAGRAM):   Keep LEVEL FREQUENCY NMISSPERCENT TRAINPRIOR;
MPRINT(EM_DIAGRAM):   NMISSPERCENT = NMISSPERCENT/100;
MPRINT(EM_DIAGRAM):   TRAINPRIOR=NMISSPERCENT;
MPRINT(EM_DIAGRAM):   run;
MPRINT(EM_DIAGRAM):   proc sort data=_classPercent(rename=(LEVEL=ORGYN NMISSPERCENT=DATAPRIOR FREQUENCY=COUNT));
MPRINT(EM_DIAGRAM):   by ORGYN;
MPRINT(EM_DIAGRAM):   run;
MPRINT(EM_DIAGRAM):   data EMWS1.Ids_ORGYN_DD;
MPRINT(EM_DIAGRAM):   set EMWS1.Ids_ORGYN_DD;
MPRINT(EM_DIAGRAM):   _sortOrder = _N_;
MPRINT(EM_DIAGRAM):   run;
MPRINT(EM_DIAGRAM):   proc sort data=EMWS1.Ids_ORGYN_DD;
MPRINT(EM_DIAGRAM):   by ORGYN;
MPRINT(EM_DIAGRAM):   run;
MPRINT(EM_DIAGRAM):   data EMWS1.Ids_ORGYN_DD;
MPRINT(EM_DIAGRAM):   merge EMWS1.Ids_ORGYN_DD _classPercent;
MPRINT(EM_DIAGRAM):   by ORGYN;
MPRINT(EM_DIAGRAM):   run;
MPRINT(EM_DIAGRAM):   proc sort data=EMWS1.Ids_ORGYN_DD out=EMWS1.Ids_ORGYN_DD(drop=_sortOrder);
MPRINT(EM_DIAGRAM):   by _sortOrder;
MPRINT(EM_DIAGRAM):   run;
MPRINT(EM_DIAGRAM):    proc printto;
MPRINT(EM_DIAGRAM):   run;
