*------------------------------------------------------------*
User:                Ron
Date:                August 27, 2016
Time:                18:02:29
*------------------------------------------------------------*
* Training Output
*------------------------------------------------------------*
 
 
 
 
Variable Summary
 
          Measurement    Frequency
 Role        Level         Count
 
TARGET      BINARY           1
 
 
 
 
 
 
 
 
 
 
 
Fit Statistics
Model Selection based on Valid: Misclassification Rate (_VMISC_)
 
                                                        Train:                        Valid:
                                         Valid:        Average         Train:        Average
Selected   Model       Model       Misclassification   Squared   Misclassification   Squared
 Model     Node     Description           Rate          Error           Rate          Error
 
   Y       Tree6   Max Branch: 3        0.17705        0.13880        0.18703        0.13520
           Tree4   Max Branch: 3        0.18227        0.13939        0.18673        0.13953
           Tree5   Max Branch: 2        0.18245        0.14173        0.18770        0.13894
           Tree    Max Branch: 2        0.18603        0.14179        0.18566        0.14159
           Tree3   Max Branch: 2        0.18782        0.14155        0.18738        0.14211
           Tree2   Max Branch: 3        0.18999        0.14004        0.18763        0.14061
 
 
 
 
 
 
 
 
 
 
 
Fit Statistics Table
Target: ORGYN
 
Data Role=Train
 
Statistics
 
Train: Bin-Based Two-Way Kolmogorov-Smirnov Probability Cutoff
Train: Kolmogorov-Smirnov Statistic
Train: Average Squared Error
Train: Roc Index
Train: Cumulative Percent Captured Response
Train: Percent Captured Response
Selection Criterion: Valid: Misclassification Rate
Train: Total Degrees of Freedom
Train: Divisor for ASE
Train: Gain
Train: Gini Coefficient
Train: Bin-Based Two-Way Kolmogorov-Smirnov Statistic
Train: Kolmogorov-Smirnov Probability Cutoff
Train: Cumulative Lift
Train: Lift
Train: Maximum Absolute Error
Train: Misclassification Rate
Train: Sum of Frequencies
Train: Root Average Squared Error
Train: Cumulative Percent Response
Train: Percent Response
Train: Sum of Squared Errors
 
   Tree6       Tree4       Tree5        Tree       Tree3       Tree2
 
    0.31        0.26        0.31        0.29        0.30        0.27
    0.44        0.43        0.44        0.44        0.44        0.44
    0.14        0.14        0.14        0.14        0.14        0.14
    0.79        0.78        0.75        0.75        0.75        0.78
   30.85       31.45       30.59       31.25       31.06       31.06
   13.70       14.23       13.66       15.35       14.53       13.89
    0.18        0.18        0.18        0.19        0.19        0.19
17778.00    15557.00    17778.00    11112.00    15557.00    11112.00
35556.00    31114.00    35556.00    22224.00    31114.00    22224.00
  208.43      214.44      205.89      212.29      210.55      210.35
    0.57        0.55        0.50        0.50        0.50        0.55
    0.44        0.43        0.44        0.44        0.44        0.44
    0.25        0.23        0.23        0.24        0.24        0.22
    3.08        3.14        3.06        3.12        3.11        3.10
    2.74        2.85        2.73        3.07        2.91        2.78
    0.97        0.96        0.98        0.89        0.87        0.95
    0.19        0.19        0.19        0.19        0.19        0.19
17778.00    15557.00    17778.00    11112.00    15557.00    11112.00
    0.37        0.37        0.38        0.38        0.38        0.37
   76.40       77.90       75.78       77.37       76.93       76.89
   67.87       70.50       67.65       75.99       71.99       68.77
 4935.28     4337.01     5039.33     3151.08     4404.08     3112.18
 
 
Data Role=Valid
 
Statistics
 
Valid: Kolmogorov-Smirnov Statistic
Valid: Average Squared Error
Valid: Roc Index
Valid: Bin-Based Two-Way Kolmogorov-Smirnov Probability Cutoff
Valid: Cumulative Percent Captured Response
Valid: Percent Captured Response
Valid: Divisor for VASE
Valid: Gain
Valid: Gini Coefficient
Valid: Bin-Based Two-Way Kolmogorov-Smirnov Statistic
Valid: Kolmogorov-Smirnov Probability Cutoff
Valid: Cumulative Lift
Valid: Lift
Valid: Maximum Absolute Error
Valid: Misclassification Rate
Valid: Sum of Frequencies
Valid: Root Average Squared Error
Valid: Cumulative Percent Response
Valid: Percent Response
Valid: Sum of Squared Errors
 
  Tree6       Tree4      Tree5        Tree       Tree3       Tree2
 
   0.45        0.44       0.46        0.45        0.45        0.44
   0.14        0.14       0.14        0.14        0.14        0.14
   0.79        0.78       0.76        0.75        0.75        0.78
   0.29        0.25       0.32        0.29        0.36        0.24
  31.83       31.15      31.54       31.12       30.81       30.87
  14.15       14.38      14.42       15.02       14.36       13.89
8890.00    13332.00    8890.00    22222.00    13332.00    22222.00
 217.96      211.36     215.04      210.90      207.95      208.49
   0.59        0.56       0.51        0.50        0.50        0.55
   0.45        0.44       0.46        0.44        0.45        0.44
   0.23        0.23       0.37        0.24        0.24        0.22
   3.18        3.11       3.15        3.11        3.08        3.08
   2.83        2.88       2.89        3.00        2.88        2.78
   0.97        0.96       0.91        0.89        1.00        0.95
   0.18        0.18       0.18        0.19        0.19        0.19
4445.00     6666.00    4445.00    11111.00     6666.00    11111.00
   0.37        0.37       0.37        0.38        0.38        0.37
  78.76       77.12      78.03       77.01       76.27       76.41
  70.17       71.28      71.53       74.36       71.21       68.76
1201.90     1860.17    1235.19     3146.42     1894.60     3124.61
 
 
 
 
 
 
 
 
 
 
 
Event Classification Table
Model Selection based on Valid: Misclassification Rate (_VMISC_)
 
Model     Model     Data                                  False    True     False    True
Node   Description  Role     Target    Target Label     Negative Negative Positive Positive
 
Tree6 Max Branch: 3 TRAIN    ORGYN  Organics Purchased?   2355     12404     970     2049
Tree6 Max Branch: 3 VALIDATE ORGYN  Organics Purchased?    593      3150     194      508
Tree5 Max Branch: 2 TRAIN    ORGYN  Organics Purchased?   2619     12656     718     1785
Tree5 Max Branch: 2 VALIDATE ORGYN  Organics Purchased?    657      3190     154      444
Tree4 Max Branch: 3 TRAIN    ORGYN  Organics Purchased?   2084     10882     821     1770
Tree4 Max Branch: 3 VALIDATE ORGYN  Organics Purchased?    902      4702     313      749
Tree3 Max Branch: 2 TRAIN    ORGYN  Organics Purchased?   2367     11155     548     1487
Tree3 Max Branch: 2 VALIDATE ORGYN  Organics Purchased?   1036      4799     216      615
Tree2 Max Branch: 3 TRAIN    ORGYN  Organics Purchased?   1613      7887     472     1140
Tree2 Max Branch: 3 VALIDATE ORGYN  Organics Purchased?   1615      7863     496     1137
Tree  Max Branch: 2 TRAIN    ORGYN  Organics Purchased?   1674      7970     389     1079
Tree  Max Branch: 2 VALIDATE ORGYN  Organics Purchased?   1678      7970     389     1074


*------------------------------------------------------------*
* Score Output
*------------------------------------------------------------*


*------------------------------------------------------------*
* Report Output
*------------------------------------------------------------*
