 
                                                                                                                                                                                                                                                                
 
 
Summary Statistics for Class Targets

Data=DATA

            Numeric    Formatted    Frequency
Variable     Value       Value        Count      Percent           Label

 ORGYN         0           0          16718      75.2284    Organics Purchased?
 ORGYN         1           1           5505      24.7716    Organics Purchased?


Data=TRAIN

            Numeric    Formatted    Frequency
Variable     Value       Value        Count      Percent           Label

 ORGYN         0           0          11703      75.2266    Organics Purchased?
 ORGYN         1           1           3854      24.7734    Organics Purchased?


Data=VALIDATE

            Numeric    Formatted    Frequency
Variable     Value       Value        Count      Percent           Label

 ORGYN         0           0           5015      75.2325    Organics Purchased?
 ORGYN         1           1           1651      24.7675    Organics Purchased?
