 
                                                                                                                                                                                                                                                                
 
 
Variable Summary

            Measurement    Frequency
Role           Level         Count

ID           NOMINAL           1    
INPUT        INTERVAL          3    
INPUT        NOMINAL           1    
INPUT        ORDINAL           3    
REJECTED     INTERVAL          4    
REJECTED     NOMINAL           7    
REJECTED     ORDINAL           2    
REJECTED     UNARY             1    
TARGET       BINARY            1    
 
                                                                                                                                                                                                                                                                
 
 
Partition Summary

                                      Number of
Type              Data Set          Observations

DATA        EMWS1.Repl_TRAIN            22223   
TRAIN       EMWS1.Part2_TRAIN           15557   
VALIDATE    EMWS1.Part2_VALIDATE         6666   
