 
                                                                                                                                                                                                                                                                
 
Variable Importance

                                                                                                        Ratio of
                                              Number of                                               Validation
Variable                                      Splitting                            Validation        to Training
Name          Label                             Rules           Importance         Importance         Importance

AGE           Age                                 2                 1.0000             1.0000             1.0000
REP_AFFL      Replacement: Affluence grade        6                 0.7873             0.7650             0.9716
REP_GENDER    Replacement: GENDER                 2                 0.3726             0.4756             1.2765
 
                                                                                                                                                                                                                                                                
 
Tree Leaf Report

                                 Training
Node               Training       Percent     Validation     Validation
 Id     Depth    Observations        1       Observations     Percent 1

  6       2          7581          0.13          7553           0.13   
 11       3           888          0.78           857           0.79   
 14       3           686          0.38           686           0.41   
  9       3           599          0.23           593           0.20   
 32       5           334          0.61           366           0.62   
 16       4           305          0.34           330           0.40   
 36       5           276          0.42           299           0.34   
 33       5           197          0.43           187           0.43   
 15       3           122          0.76           106           0.72   
 37       5            71          0.62            60           0.52   
 21       4            53          0.89            74           0.82   
 
                                                                                               
 
 
Fit Statistics

Target=ORGYN Target Label=Organics Purchased?

   Fit
Statistics    Statistics Label                 Train    Validation

  _NOBS_      Sum of Frequencies            11112.00     11111.00 
  _MISC_      Misclassification Rate            0.19         0.19 
  _MAX_       Maximum Absolute Error            0.89         0.89 
  _SSE_       Sum of Squared Errors          3151.08      3146.42 
  _ASE_       Average Squared Error             0.14         0.14 
  _RASE_      Root Average Squared Error        0.38         0.38 
  _DIV_       Divisor for ASE               22224.00     22222.00 
  _DFT_       Total Degrees of Freedom      11112.00          .   
 
                                                                                               
 
 
Classification Table

Data Role=TRAIN Target Variable=ORGYN Target Label=Organics Purchased?

                       Target        Outcome     Frequency       Total
Target    Outcome    Percentage    Percentage      Count      Percentage

  0          0         82.6421       95.3463        7970        71.7243 
  1          0         17.3579       60.8064        1674        15.0648 
  0          1         26.4986        4.6537         389         3.5007 
  1          1         73.5014       39.1936        1079         9.7102 


Data Role=VALIDATE Target Variable=ORGYN Target Label=Organics Purchased?

                       Target        Outcome     Frequency       Total
Target    Outcome    Percentage    Percentage      Count      Percentage

  0          0         82.6078       95.3463        7970        71.7307 
  1          0         17.3922       60.9738        1678        15.1022 
  0          1         26.5892        4.6537         389         3.5010 
  1          1         73.4108       39.0262        1074         9.6661 
 
                                                                                               
 
 
Event Classification Table

Data Role=TRAIN Target=ORGYN Target Label=Organics Purchased?

  False       True        False       True
Negative    Negative    Positive    Positive

  1674        7970         389        1079  


Data Role=VALIDATE Target=ORGYN Target Label=Organics Purchased?

  False       True        False       True
Negative    Negative    Positive    Positive

  1678        7970         389        1074  
 
                                                                                               
 
 
Assessment Score Rankings

Data Role=TRAIN Target Variable=ORGYN Target Label=Organics Purchased?

                                                                                    Mean
                            Cumulative       %      Cumulative     Number of     Posterior
Depth      Gain     Lift       Lift      Response   % Response   Observations   Probability

   5    217.857   3.17857     3.17857     78.7490     78.7490         556         0.78749  
  10    212.295   3.06733     3.12295     75.9931     77.3711         556         0.75993  
  15    182.042   2.21428     2.82042     54.8589     69.8760         555         0.54859  
  20    151.636   1.60471     2.51636     39.7567     62.3428         556         0.39757  
  25    131.164   1.49164     2.31164     36.9555     57.2708         555         0.36956  
  30    110.325   1.06209     2.10325     26.3133     52.1081         556         0.26313  
  35     89.773   0.66533     1.89773     16.4837     47.0163         556         0.16484  
  40     72.527   0.51645     1.72527     12.7951     42.7435         555         0.12795  
  45     59.087   0.51645     1.59087     12.7951     39.4139         556         0.12795  
  50     48.355   0.51645     1.48355     12.7951     36.7549         555         0.12795  
  55     39.557   0.51645     1.39557     12.7951     34.5753         556         0.12795  
  60     32.227   0.51645     1.32227     12.7951     32.7592         556         0.12795  
  65     26.035   0.51645     1.26035     12.7951     31.2252         555         0.12795  
  70     20.718   0.51645     1.20718     12.7951     29.9079         556         0.12795  
  75     16.118   0.51645     1.16118     12.7951     28.7683         555         0.12795  
  80     12.086   0.51645     1.12086     12.7951     27.7693         556         0.12795  
  85      8.528   0.51645     1.08528     12.7951     26.8879         556         0.12795  
  90      5.372   0.51645     1.05372     12.7951     26.1058         555         0.12795  
  95      2.542   0.51645     1.02542     12.7951     25.4048         556         0.12795  
 100      0.000   0.51645     1.00000     12.7951     24.7750         555         0.12795  


Data Role=VALIDATE Target Variable=ORGYN Target Label=Organics Purchased?

                                                                                    Mean
                            Cumulative       %      Cumulative     Number of     Posterior
Depth      Gain     Lift       Lift      Response   % Response   Observations   Probability

   5    221.606   3.21606     3.21606     79.6561     79.6561         556         0.79164  
  10    210.905   3.00204     3.10905     74.3553     77.0057         556         0.75284  
  15    180.914   2.20824     2.80914     54.6942     69.5775         555         0.54631  
  20    148.609   1.51752     2.48609     37.5864     61.5761         556         0.39811  
  25    131.757   1.64259     2.31757     40.6841     57.4022         555         0.37006  
  30    111.277   1.08951     2.11277     26.9852     52.3297         556         0.26979  
  35     90.208   0.63644     1.90208     15.7635     47.1113         555         0.16997  
  40     72.849   0.51423     1.72849     12.7367     42.8116         556         0.12795  
  45     59.370   0.51423     1.59370     12.7367     39.4733         555         0.12795  
  50     48.568   0.51423     1.48568     12.7367     36.7977         556         0.12795  
  55     39.731   0.51423     1.39731     12.7367     34.6089         556         0.12795  
  60     32.380   0.51423     1.32380     12.7367     32.7881         555         0.12795  
  65     26.148   0.51423     1.26148     12.7367     31.2446         556         0.12795  
  70     20.816   0.51423     1.20816     12.7367     29.9240         555         0.12795  
  75     16.186   0.51423     1.16186     12.7367     28.7773         556         0.12795  
  80     12.143   0.51423     1.12143     12.7367     27.7758         555         0.12795  
  85      8.568   0.51423     1.08568     12.7367     26.8905         556         0.12795  
  90      5.397   0.51423     1.05397     12.7367     26.1050         555         0.12795  
  95      2.554   0.51423     1.02554     12.7367     25.4008         556         0.12795  
 100      0.000   0.51423     1.00000     12.7367     24.7682         555         0.12795  
 
                                                                                               
 
 
Assessment Score Distribution

Data Role=TRAIN Target Variable=ORGYN Target Label=Organics Purchased?

 Posterior     Number                     Mean
Probability      of      Number of     Posterior
   Range       Events    Nonevents    Probability    Percentage

 0.85-0.90        47           6        0.88679         0.4770 
 0.75-0.80       783         227        0.77525         9.0893 
 0.60-0.65       249         156        0.61481         3.6447 
 0.40-0.45       200         273        0.42283         4.2567 
 0.35-0.40       260         426        0.37901         6.1735 
 0.30-0.35       105         200        0.34426         2.7448 
 0.20-0.25       139         460        0.23205         5.3906 
 0.10-0.15       970        6611        0.12795        68.2235 


Data Role=VALIDATE Target Variable=ORGYN Target Label=Organics Purchased?

 Posterior     Number                     Mean
Probability      of      Number of     Posterior
   Range       Events    Nonevents    Probability    Percentage

 0.85-0.90        61          13        0.88679         0.6660 
 0.75-0.80       755         208        0.77541         8.6671 
 0.60-0.65       258         168        0.61461         3.8340 
 0.40-0.45       183         303        0.42236         4.3740 
 0.35-0.40       280         406        0.37901         6.1741 
 0.30-0.35       133         197        0.34426         2.9700 
 0.20-0.25       120         473        0.23205         5.3371 
 0.10-0.15       962        6591        0.12795        67.9777 
